<?xml version="1.0" encoding="UTF-8" standalone="no"?>
<svg
   xmlns:osb="http://www.openswatchbook.org/uri/2009/osb"
   xmlns:dc="http://purl.org/dc/elements/1.1/"
   xmlns:cc="http://creativecommons.org/ns#"
   xmlns:rdf="http://www.w3.org/1999/02/22-rdf-syntax-ns#"
   xmlns:svg="http://www.w3.org/2000/svg"
   xmlns="http://www.w3.org/2000/svg"
   xmlns:xlink="http://www.w3.org/1999/xlink"
   xmlns:sodipodi="http://sodipodi.sourceforge.net/DTD/sodipodi-0.dtd"
   xmlns:inkscape="http://www.inkscape.org/namespaces/inkscape"
   width="210mm"
   height="297mm"
   viewBox="0 0 210 297"
   version="1.1"
   id="svg4648"
   inkscape:version="1.0.1 (3bc2e813f5, 2020-09-07)"
   sodipodi:docname="articles.svg">
  <defs
     id="defs4642">
    <linearGradient
       id="linearGradient12537"
       osb:paint="solid">
      <stop
         style="stop-color:#d60e00;stop-opacity:1;"
         offset="0"
         id="stop12535" />
    </linearGradient>
    <linearGradient
       id="linearGradient12531"
       osb:paint="solid">
      <stop
         style="stop-color:#d60e00;stop-opacity:1;"
         offset="0"
         id="stop12529" />
    </linearGradient>
    <linearGradient
       id="linearGradient12525"
       osb:paint="solid">
      <stop
         style="stop-color:#d60e00;stop-opacity:1;"
         offset="0"
         id="stop12523" />
    </linearGradient>
    <linearGradient
       id="linearGradient12519"
       osb:paint="solid">
      <stop
         style="stop-color:#d60e00;stop-opacity:1;"
         offset="0"
         id="stop12517" />
    </linearGradient>
    <linearGradient
       id="linearGradient12513"
       osb:paint="solid">
      <stop
         style="stop-color:#d60e00;stop-opacity:1;"
         offset="0"
         id="stop12511" />
    </linearGradient>
    <linearGradient
       id="linearGradient12507"
       osb:paint="solid">
      <stop
         style="stop-color:#d60e00;stop-opacity:1;"
         offset="0"
         id="stop12505" />
    </linearGradient>
    <linearGradient
       id="linearGradient12501"
       osb:paint="solid">
      <stop
         style="stop-color:#000000;stop-opacity:1;"
         offset="0"
         id="stop12499" />
    </linearGradient>
  </defs>
  <sodipodi:namedview
     id="base"
     pagecolor="#ffffff"
     bordercolor="#666666"
     borderopacity="1.0"
     inkscape:pageopacity="0.0"
     inkscape:pageshadow="2"
     inkscape:zoom="0.29586146"
     inkscape:cx="449.61003"
     inkscape:cy="538.39605"
     inkscape:document-units="mm"
     inkscape:current-layer="layer1"
     inkscape:document-rotation="0"
     showgrid="false"
     inkscape:window-width="1280"
     inkscape:window-height="656"
     inkscape:window-x="0"
     inkscape:window-y="27"
     inkscape:window-maximized="1"
     inkscape:snap-object-midpoints="true"
     inkscape:snap-nodes="true"
     inkscape:snap-bbox="true"
     inkscape:bbox-nodes="true"
     inkscape:bbox-paths="true"
     showguides="true"
     inkscape:guide-bbox="true"
     inkscape:snap-global="true"
     inkscape:snap-page="true" />
  <metadata
     id="metadata4645">
    <rdf:RDF>
      <cc:Work
         rdf:about="">
        <dc:format>image/svg+xml</dc:format>
        <dc:type
           rdf:resource="http://purl.org/dc/dcmitype/StillImage" />
        <dc:title></dc:title>
      </cc:Work>
    </rdf:RDF>
  </metadata>
  <g
     inkscape:label="main"
     inkscape:groupmode="layer"
     id="layer1">
    <g
       id="g2415"
       transform="rotate(90,105.44066,94.438785)">
      <rect
         style="font-variation-settings:normal;opacity:1;vector-effect:none;fill:#ffffff;fill-opacity:1;stroke:none;stroke-width:0.264583;stroke-opacity:1;stop-color:#000000;stop-opacity:1"
         id="rect2311"
         width="44.313873"
         height="63.498852"
         x="20.909321"
         y="-0.3688319"
         ry="0.39978278" />
      <g
         id="g10294">
        <rect
           style="display:inline;vector-effect:none;fill:#c26868;fill-opacity:1;stroke:none;stroke-width:0.972815;paint-order:normal"
           id="rect2313"
           width="37.025654"
           height="56.59129"
           x="24.690205"
           y="3.0849495"
           rx="2.140193"
           ry="2.140193" />
        <path
           id="path2315"
           d="m 52.96902,6.717554 v 5.584663 h 5.092514 V 56.068175 H 28.344546 V 6.717554 Z"
           style="vector-effect:none;fill:#ffffff;fill-opacity:1;stroke:none;stroke-width:0.985899;stroke-linecap:round;stroke-linejoin:miter;stroke-miterlimit:4;stroke-dasharray:none;stroke-dashoffset:0;stroke-opacity:1;paint-order:normal"
           inkscape:connector-curvature="0"
           sodipodi:nodetypes="ccccccc" />
        <path
           sodipodi:nodetypes="cccc"
           inkscape:connector-curvature="0"
           id="path2317"
           d="m 53.648746,7.175019 v 4.346267 h 4.346267 z"
           style="vector-effect:none;fill:#ffffff;fill-opacity:1;stroke:none;stroke-width:1.05798;stroke-linecap:round;stroke-linejoin:miter;stroke-miterlimit:4;stroke-dasharray:none;stroke-dashoffset:0;stroke-opacity:1;paint-order:normal" />
        <g
           id="g2369"
           transform="matrix(0.25739063,0,0,0.25739063,21.448434,-288.32323)"
           style="display:inline;fill:#c26868;fill-opacity:1;stroke:none">
          <circle
             r="1.3107344"
             cy="1249.401"
             cx="35.480225"
             id="circle2319"
             style="opacity:1;vector-effect:none;fill:#c26868;fill-opacity:1;stroke:none;paint-order:normal" />
          <circle
             r="1.3107344"
             cy="1249.401"
             cx="39.566853"
             id="use2321"
             style="vector-effect:none;fill:#c26868;fill-opacity:1;stroke:none;paint-order:normal" />
          <circle
             r="1.3107344"
             cy="1249.401"
             cx="43.653481"
             id="use2323"
             style="vector-effect:none;fill:#c26868;fill-opacity:1;stroke:none;paint-order:normal" />
          <circle
             r="1.3107344"
             cy="1249.401"
             cx="47.740112"
             id="use2325"
             style="vector-effect:none;fill:#c26868;fill-opacity:1;stroke:none;paint-order:normal" />
          <circle
             r="1.3107344"
             cy="1249.401"
             cx="51.826736"
             id="use2327"
             style="vector-effect:none;fill:#c26868;fill-opacity:1;stroke:none;paint-order:normal" />
          <circle
             r="1.3107344"
             cy="1249.401"
             cx="55.913368"
             id="use2329"
             style="vector-effect:none;fill:#c26868;fill-opacity:1;stroke:none;paint-order:normal" />
          <circle
             r="1.3107344"
             cy="1249.401"
             cx="59.999996"
             id="use2331"
             style="vector-effect:none;fill:#c26868;fill-opacity:1;stroke:none;paint-order:normal" />
          <circle
             r="1.3107344"
             cy="1249.401"
             cx="64.086624"
             id="use2333"
             style="vector-effect:none;fill:#c26868;fill-opacity:1;stroke:none;paint-order:normal" />
          <circle
             r="1.3107344"
             cy="1249.401"
             cx="68.173248"
             id="use2335"
             style="vector-effect:none;fill:#c26868;fill-opacity:1;stroke:none;paint-order:normal" />
          <circle
             r="1.3107344"
             cy="1249.401"
             cx="72.25988"
             id="use2337"
             style="vector-effect:none;fill:#c26868;fill-opacity:1;stroke:none;paint-order:normal" />
          <circle
             r="1.3107344"
             cy="1249.401"
             cx="76.346512"
             id="use2339"
             style="vector-effect:none;fill:#c26868;fill-opacity:1;stroke:none;paint-order:normal" />
          <circle
             r="1.3107344"
             cy="1249.401"
             cx="80.433136"
             id="use2341"
             style="vector-effect:none;fill:#c26868;fill-opacity:1;stroke:none;paint-order:normal" />
          <circle
             r="1.3107344"
             cy="1249.401"
             cx="84.519768"
             id="use2343"
             style="vector-effect:none;fill:#c26868;fill-opacity:1;stroke:none;paint-order:normal" />
          <circle
             r="1.3107344"
             cy="1249.401"
             cx="88.6064"
             id="use2345"
             style="vector-effect:none;fill:#c26868;fill-opacity:1;stroke:none;paint-order:normal" />
          <circle
             r="1.3107344"
             cy="1249.401"
             cx="92.693024"
             id="use2347"
             style="vector-effect:none;fill:#c26868;fill-opacity:1;stroke:none;paint-order:normal" />
          <circle
             r="1.3107344"
             cy="1249.401"
             cx="96.779648"
             id="use2349"
             style="vector-effect:none;fill:#c26868;fill-opacity:1;stroke:none;paint-order:normal" />
          <circle
             r="1.3107344"
             cy="1249.401"
             cx="100.86628"
             id="use2351"
             style="vector-effect:none;fill:#c26868;fill-opacity:1;stroke:none;paint-order:normal" />
          <circle
             r="1.3107344"
             cy="1249.401"
             cx="104.95291"
             id="use2353"
             style="vector-effect:none;fill:#c26868;fill-opacity:1;stroke:none;paint-order:normal" />
          <circle
             r="1.3107344"
             cy="1249.401"
             cx="109.03954"
             id="use2355"
             style="vector-effect:none;fill:#c26868;fill-opacity:1;stroke:none;paint-order:normal" />
          <circle
             r="1.3107344"
             cy="1249.401"
             cx="113.12617"
             id="use2357"
             style="vector-effect:none;fill:#c26868;fill-opacity:1;stroke:none;paint-order:normal" />
          <circle
             r="1.3107344"
             cy="1249.401"
             cx="117.21278"
             id="use2359"
             style="vector-effect:none;fill:#c26868;fill-opacity:1;stroke:none;paint-order:normal" />
          <circle
             r="1.3107344"
             cy="1249.401"
             cx="121.29942"
             id="use2361"
             style="vector-effect:none;fill:#c26868;fill-opacity:1;stroke:none;paint-order:normal" />
          <circle
             r="1.3107344"
             cy="1249.401"
             cx="125.38605"
             id="use2363"
             style="vector-effect:none;fill:#c26868;fill-opacity:1;stroke:none;paint-order:normal" />
          <circle
             r="1.3107344"
             cy="1249.401"
             cx="129.47269"
             id="use2365"
             style="vector-effect:none;fill:#c26868;fill-opacity:1;stroke:none;paint-order:normal" />
          <circle
             r="1.3107344"
             cy="1249.401"
             cx="133.55931"
             id="use2367"
             style="vector-effect:none;fill:#c26868;fill-opacity:1;stroke:none;paint-order:normal" />
        </g>
        <g
           id="g2387"
           style="stroke:#c26868;stroke-opacity:1"
           transform="matrix(0.97281499,0,0,0.97281499,-0.051152,-11.806443)">
          <path
             inkscape:connector-curvature="0"
             id="path2371"
             d="m 51.597209,48.90168 h 5.882254"
             style="fill-opacity:1;stroke:#c26868;stroke-width:0.6;stroke-linecap:butt;stroke-linejoin:miter;stroke-miterlimit:4;stroke-dasharray:none;stroke-opacity:1" />
          <path
             style="fill-opacity:1;stroke:#c26868;stroke-width:0.6;stroke-linecap:butt;stroke-linejoin:miter;stroke-miterlimit:4;stroke-dasharray:none;stroke-opacity:1"
             d="m 51.597209,51.16069 h 5.882254"
             id="path2373"
             inkscape:connector-curvature="0" />
          <path
             sodipodi:nodetypes="cc"
             inkscape:connector-curvature="0"
             id="path2375"
             d="m 31.446353,53.41968 h 26.03311"
             style="fill-opacity:1;stroke:#c26868;stroke-width:0.6;stroke-linecap:butt;stroke-linejoin:miter;stroke-miterlimit:4;stroke-dasharray:none;stroke-opacity:1" />
          <path
             style="fill-opacity:1;stroke:#c26868;stroke-width:0.6;stroke-linecap:butt;stroke-linejoin:miter;stroke-miterlimit:4;stroke-dasharray:none;stroke-opacity:1"
             d="m 31.446353,55.67868 h 26.03311"
             id="path2377"
             inkscape:connector-curvature="0"
             sodipodi:nodetypes="cc" />
          <path
             sodipodi:nodetypes="cc"
             inkscape:connector-curvature="0"
             id="path2379"
             d="M 31.446353,57.93768 H 54.077677"
             style="fill-opacity:1;stroke:#c26868;stroke-width:0.6;stroke-linecap:butt;stroke-linejoin:miter;stroke-miterlimit:4;stroke-dasharray:none;stroke-opacity:1" />
          <path
             style="fill-opacity:1;stroke:#c26868;stroke-width:0.6;stroke-linecap:butt;stroke-linejoin:miter;stroke-miterlimit:4;stroke-dasharray:none;stroke-opacity:1"
             d="m 31.446353,62.44003 h 26.03311"
             id="path2381"
             inkscape:connector-curvature="0"
             sodipodi:nodetypes="cc" />
          <path
             sodipodi:nodetypes="cc"
             inkscape:connector-curvature="0"
             id="path2383"
             d="m 31.446353,64.69903 h 26.03311"
             style="fill-opacity:1;stroke:#c26868;stroke-width:0.6;stroke-linecap:butt;stroke-linejoin:miter;stroke-miterlimit:4;stroke-dasharray:none;stroke-opacity:1" />
          <path
             style="fill-opacity:1;stroke:#c26868;stroke-width:0.6;stroke-linecap:butt;stroke-linejoin:miter;stroke-miterlimit:4;stroke-dasharray:none;stroke-opacity:1"
             d="m 31.446353,66.95803 h 26.03311"
             id="path2385"
             inkscape:connector-curvature="0"
             sodipodi:nodetypes="cc" />
        </g>
        <text
           id="text2391"
           y="38.292446"
           x="30.576874"
           style="font-style:normal;font-variant:normal;font-weight:normal;font-stretch:normal;font-size:3.8019px;line-height:1.25;font-family:'Futura Hv BT';-inkscape-font-specification:'Futura Hv BT, Normal';font-variant-ligatures:normal;font-variant-caps:normal;font-variant-numeric:normal;font-feature-settings:normal;text-align:start;letter-spacing:0.58273px;word-spacing:0px;writing-mode:lr-tb;text-anchor:start;fill:#c26868;fill-opacity:1;stroke:none;stroke-width:0.158418"
           xml:space="preserve"><tspan
             style="font-style:normal;font-variant:normal;font-weight:normal;font-stretch:normal;font-size:3.8019px;font-family:'Futura Hv BT';-inkscape-font-specification:'Futura Hv BT';font-variant-ligatures:normal;font-variant-caps:normal;font-variant-numeric:normal;font-feature-settings:normal;text-align:start;letter-spacing:0.58273px;writing-mode:lr-tb;text-anchor:start;fill:#c26868;fill-opacity:1;stroke-width:0.158418"
             y="38.292446"
             x="30.576874"
             id="tspan2389"
             sodipodi:role="line">ARTICLE</tspan></text>
        <path
           d="m 46.496786,16.539525 c -0.135632,-0.06781 -0.203449,-0.20345 -0.203449,-0.4069 v -0.203449 l 0.135634,-1.627592 c 0,-0.135632 0,-0.203448 0.06781,-0.339082 0,-0.203449 0.06782,-0.339083 0.06782,-0.542531 v 0 c 0,-2.237942 -1.695412,-4.068986 -3.865536,-4.068986 h -0.339083 c -2.102307,0 -3.865536,1.763228 -3.865536,4.001169 0,0.20345 0,0.339077 0.06782,0.542532 0,0.135633 0,0.20345 0.06781,0.339078 l 0.135633,1.627596 v 0.203449 c 0,0.135633 -0.06781,0.339082 -0.20345,0.406899 -0.271265,0.20345 -0.406898,0.542532 -0.339082,0.881614 l 0.339082,1.085065 c 0.135634,0.474711 0.610349,0.678161 1.017249,0.542531 0.203444,-0.06782 0.474715,0 0.678165,0.13563 l 0.135627,0.135633 c 0.06783,0.06782 0.135633,0.135633 0.06783,0.271269 0,0.13563 0,0.271263 0,0.339079 0,1.220705 0.949428,1.695421 2.102308,1.695421 h 0.06781 c 1.15288,0 2.102311,-0.474716 2.102311,-1.695421 0,-0.06781 0,-0.203449 0,-0.339079 0,-0.06782 0,-0.20345 0.06781,-0.271269 l 0.135637,-0.135633 c 0.20345,-0.20345 0.406898,-0.271266 0.678165,-0.13563 0.406898,0.13563 0.881614,-0.06782 1.017247,-0.542531 l 0.339083,-1.085065 c -0.06782,-0.271265 -0.20345,-0.610348 -0.474715,-0.813797 z m -6.103481,1.424143 c -0.610348,0 -1.15288,-0.678162 -1.15288,-1.559777 0,-0.06782 0,-0.203449 0,-0.271266 l 0.06782,-0.271265 c 0.135628,-0.610344 0.542531,-1.017244 1.017242,-1.017244 0.4069,0 0.949432,0 1.288514,0.4069 0,0.06781 0.06781,0.06781 0.06781,0.135628 0,0 0.203449,0.813798 0.203449,1.017247 0,0.406899 -0.339083,0.678166 -0.678165,0.949431 -0.203445,0.339083 -0.474715,0.610346 -0.813798,0.610346 z m 2.509211,1.491962 c -0.203449,0 -0.339082,-0.13563 -0.406899,-0.339082 v -0.06782 0.06782 c -0.06781,0.203452 -0.20345,0.339082 -0.406899,0.339082 -0.203449,0 -0.406899,-0.271262 -0.406899,-0.610348 0,-0.203447 0.06781,-0.406895 0.20345,-0.542532 0.135633,-0.135633 0.203449,-0.339082 0.271265,-0.542528 l 0.06781,-0.135634 v -0.06781 0 l 0.06781,-0.135636 c 0.06781,-0.203446 0.339083,-0.203446 0.4069,0 l 0.135632,0.406903 c 0.06781,0.203448 0.20345,0.406898 0.271266,0.542528 0.135634,0.135633 0.20345,0.271269 0.20345,0.542532 0,0.271269 -0.20345,0.542532 -0.406899,0.542532 z m 1.627596,-1.491962 c -0.339083,0 -0.610352,-0.33908 -0.881615,-0.610346 -0.339082,-0.271265 -0.678168,-0.542532 -0.678168,-0.949431 0,-0.339082 0.06783,-0.881614 0.27127,-1.152875 0.339082,-0.4069 0.94943,-0.4069 1.288513,-0.4069 0.610345,0 1.152877,0.678161 1.152877,1.559775 -0.06781,0.881615 -0.542532,1.559777 -1.152877,1.559777 z"
           id="path2393"
           style="fill:#c26868;fill-opacity:1;stroke:none;stroke-width:0.293121" />
        <g
           id="g2409"
           style="fill:#c26868;fill-opacity:1;stroke:none"
           transform="matrix(0.97281499,0,0,0.97281499,-0.051152,-11.806443)">
          <path
             sodipodi:nodetypes="cccccccccccc"
             style="font-style:normal;font-variant:normal;font-weight:900;font-stretch:normal;font-size:11.2889px;line-height:1.25;font-family:EskapadeFrakturW04-Black;-inkscape-font-specification:'EskapadeFrakturW04-Black, Heavy';font-variant-ligatures:normal;font-variant-caps:normal;font-variant-numeric:normal;font-feature-settings:normal;text-align:start;letter-spacing:0px;word-spacing:0px;writing-mode:lr-tb;text-anchor:start;fill:#c26868;fill-opacity:1;stroke:none;stroke-width:0.208707"
             d="m 32.839418,37.650849 -0.983234,1.438791 v 4.616573 h 1.197792 V 41.18624 h 1.598156 V 40.170829 H 33.053976 V 38.94875 l 1.73186,0.233568 0.382765,-1.237565 z"
             id="path2395"
             inkscape:connector-curvature="0" />
          <path
             d="m 36.840195,37.650849 -1.016255,1.887737 v 1.76301 h -0.489972 v 0.721506 h 0.489972 v 1.789908 h 1.096564 v -1.789908 h 1.077372 v 1.647243 L 39.120999,43.910847 39.664374,42.72667 39.0941,42.6374 v -3.267983 l -0.428524,-1.460539 z m 0.08031,1.2926 1.077372,0.203404 v 2.154743 h -1.077372 z"
             id="path2397"
             inkscape:connector-curvature="0"
             sodipodi:nodetypes="cccccccccccccccccccccc"
             style="font-style:normal;font-variant:normal;font-weight:900;font-stretch:normal;font-size:42.6667px;line-height:1.25;font-family:EskapadeFrakturW04-Black;-inkscape-font-specification:'EskapadeFrakturW04-Black, Heavy';font-variant-ligatures:normal;font-variant-caps:normal;font-variant-numeric:normal;font-feature-settings:normal;text-align:start;letter-spacing:0px;word-spacing:0px;writing-mode:lr-tb;text-anchor:start;fill:#c26868;fill-opacity:1;stroke:none;stroke-width:0.208707" />
          <path
             sodipodi:nodetypes="ccccccccc"
             inkscape:connector-curvature="0"
             id="path2399"
             d="m 54.029292,37.650849 -0.302866,0.940086 h 1.401772 v 4.981581 h 1.096548 v -4.981581 h 1.179334 l 0.302866,-0.940086 z"
             style="font-style:normal;font-variant:normal;font-weight:900;font-stretch:normal;font-size:42.6667px;line-height:1.25;font-family:EskapadeFrakturW04-Black;-inkscape-font-specification:'EskapadeFrakturW04-Black, Heavy';font-variant-ligatures:normal;font-variant-caps:normal;font-variant-numeric:normal;font-feature-settings:normal;text-align:start;letter-spacing:0px;word-spacing:0px;writing-mode:lr-tb;text-anchor:start;fill:#c26868;fill-opacity:1;stroke:none;stroke-width:0.208707" />
          <path
             inkscape:connector-curvature="0"
             id="path2401"
             style="font-style:normal;font-variant:normal;font-weight:900;font-stretch:normal;font-size:11.2889px;line-height:1.25;font-family:EskapadeFrakturW04-Black;-inkscape-font-specification:'EskapadeFrakturW04-Black, Heavy';font-variant-ligatures:normal;font-variant-caps:normal;font-variant-numeric:normal;font-feature-settings:normal;text-align:start;letter-spacing:0px;word-spacing:0px;writing-mode:lr-tb;text-anchor:start;fill:#c26868;fill-opacity:1;stroke:none;stroke-width:0.208707"
             d="m 49.300975,37.99814 v 5.725797 h -1.119549 v -4.772995 l -0.721293,-0.142475 0.561005,-1.157618 z"
             sodipodi:nodetypes="ccccccc" />
          <path
             sodipodi:nodetypes="ccccccccccccccc"
             d="m 39.883476,43.545862 0.320574,-1.098733 1.780963,0.231526 c 0.0594,-0.284952 0.06232,-0.964714 0.0089,-1.249673 l -1.994685,-0.863769 c -0.01846,-0.552423 0.0085,-1.017342 0.142492,-1.551923 0.379712,-0.557621 0.843914,-0.994467 1.406962,-1.362441 l 1.665205,0.222619 -0.516477,1.063331 -1.362442,-0.222619 c -0.09499,0.231525 -0.124672,0.866639 -0.08905,1.115976 l 1.914541,0.792531 c 0.08749,0.6169 0.0721,1.175389 -0.0624,1.774447 -0.391812,0.587723 -0.822214,1.044833 -1.291204,1.371348 z"
             style="font-style:normal;font-variant:normal;font-weight:900;font-stretch:normal;font-size:11.2889px;line-height:1.25;font-family:EskapadeFrakturW04-Black;-inkscape-font-specification:'EskapadeFrakturW04-Black, Heavy';font-variant-ligatures:normal;font-variant-caps:normal;font-variant-numeric:normal;font-feature-settings:normal;text-align:start;letter-spacing:0px;word-spacing:0px;writing-mode:lr-tb;text-anchor:start;display:inline;fill:#c26868;fill-opacity:1;stroke:none;stroke-width:0.208707"
             id="path2403"
             inkscape:connector-curvature="0" />
          <path
             sodipodi:nodetypes="ccccccccccccccc"
             d="m 50.063231,43.545862 0.320575,-1.098733 1.780963,0.231526 c 0.0594,-0.284952 0.06232,-0.964714 0.0089,-1.249673 l -1.994685,-0.863769 c -0.01846,-0.552423 0.0085,-1.017342 0.142491,-1.551923 0.379712,-0.557621 0.843914,-0.994467 1.406963,-1.362441 l 1.665204,0.222619 -0.516476,1.063331 -1.362442,-0.222619 c -0.09499,0.231525 -0.124672,0.866639 -0.08905,1.115976 l 1.914541,0.792531 c 0.08749,0.6169 0.0721,1.175389 -0.06239,1.774447 -0.391813,0.587723 -0.822214,1.044833 -1.291204,1.371348 z"
             style="font-style:normal;font-variant:normal;font-weight:900;font-stretch:normal;font-size:11.2889px;line-height:1.25;font-family:EskapadeFrakturW04-Black;-inkscape-font-specification:'EskapadeFrakturW04-Black, Heavy';font-variant-ligatures:normal;font-variant-caps:normal;font-variant-numeric:normal;font-feature-settings:normal;text-align:start;letter-spacing:0px;word-spacing:0px;writing-mode:lr-tb;text-anchor:start;display:inline;fill:#c26868;fill-opacity:1;stroke:none;stroke-width:0.208707"
             id="path2405"
             inkscape:connector-curvature="0" />
          <path
             style="font-style:normal;font-variant:normal;font-weight:900;font-stretch:normal;font-size:11.2889px;line-height:1.25;font-family:EskapadeFrakturW04-Black;-inkscape-font-specification:'EskapadeFrakturW04-Black, Heavy';font-variant-ligatures:normal;font-variant-caps:normal;font-variant-numeric:normal;font-feature-settings:normal;text-align:start;letter-spacing:0px;word-spacing:0px;writing-mode:lr-tb;text-anchor:start;fill:#c26868;fill-opacity:1;stroke:none;stroke-width:0.208707"
             d="m 45.541116,37.650851 c -0.279019,0.178099 -0.590379,0.456927 -0.9347,0.836869 -0.344321,0.374001 -0.596684,0.70962 -0.756972,1.006441 -0.118731,0.575851 -0.178135,1.071485 -0.178135,1.48704 0,0.961724 0.121839,1.798624 0.365238,2.511011 l 2.484108,0.240504 0.392141,-1.246538 -2.203835,-0.144303 C 44.5353,41.594692 44.605134,40.36564 44.605134,39.86796 c 0,-0.302772 0.266118,-0.51654 0.325484,-0.641205 0.05936,-0.130603 0.370218,-0.222564 0.459266,-0.275966 l 1.264474,0.196071 0.516469,-1.282409 z"
             id="path2407"
             inkscape:connector-curvature="0"
             sodipodi:nodetypes="cccsccccsccccc" />
        </g>
      </g>
      <path
         id="path2411"
         style="font-variation-settings:normal;vector-effect:none;fill:#ffffff;fill-opacity:1;stroke:none;stroke-width:0.264583px;stroke-linecap:butt;stroke-linejoin:miter;stroke-miterlimit:4;stroke-dasharray:none;stroke-dashoffset:0;stroke-opacity:1;stop-color:#000000"
         d="m 61.970866,36.265389 c -0.26312,0.559538 -0.734049,1.45352 -0.186991,1.968561 0.54706,0.51504 0.186991,-1.968561 0.186991,-1.968561 z M 58.492707,26.150997 a 0.29026163,0.4731057 49.062508 0 1 -0.167206,0.529267 0.29026163,0.4731057 49.062508 0 1 -0.547586,0.09072 0.29026163,0.4731057 49.062508 0 1 0.167206,-0.529266 0.29026163,0.4731057 49.062508 0 1 0.547586,-0.09072 z m 1.475594,-5.256828 c -0.378222,-0.01672 -0.201533,0.517522 -0.05064,0.692981 -0.232201,0.09369 -0.39946,0.366008 -0.39946,0.763259 0,0.180343 -0.0083,0.365538 -0.336412,0.555006 -0.243745,0.140727 -0.13149,0.443307 0.0041,0.595828 0.118448,0.133178 0.945718,0.07723 1.080039,-0.07338 0.122912,-0.137819 0.02532,-0.414531 0.02532,-0.761193 0,-0.459875 0.332843,-0.494027 0.610298,-0.494027 0.277453,0 1.187009,0.02967 1.187009,-0.278538 0,-0.308208 -0.184378,-0.345197 -0.3452,-0.345197 h -1.643311 c -0.0051,0 -0.0099,0.0013 -0.01497,0.0016 0.318206,-0.110019 0.261435,-0.639583 -0.116787,-0.656291 z m -1.073662,21.173275 c -0.256308,-0.13787 -0.08744,-0.424093 -0.151897,-0.636717 -0.136274,-0.449559 -0.177792,-1.06488 -0.02482,-1.399345 0.06424,-0.140464 0.168009,-0.226004 0.369815,-0.100808 0.210688,0.130706 0.260552,0.282434 0.269569,0.465796 0.03163,0.643241 0.542962,0.804096 0.639376,1.226462 0.172495,0.755656 -0.63815,0.694144 -1.102043,0.444612 z m -33.568151,8.789237 c -0.322924,0 -0.506428,0.291293 -0.506428,0.787032 0,0.180342 -0.04589,0.471209 -0.411861,0.569473 -0.41851,0.147029 -0.391869,0.402254 -0.327113,0.595831 0.16573,0.06557 1.22237,-0.0031 1.370457,-0.01292 0.177062,0.5775 0.441624,0.618762 0.64234,0.444933 0.203422,-0.176172 0.06738,-0.457348 -0.560173,-0.565856 -0.0059,-0.120822 -0.01602,-0.354071 -0.01602,-0.700733 0,-0.459875 0.332846,-0.494027 0.610301,-0.494027 0.277453,0 1.187006,0.02967 1.187006,-0.278535 0,-0.308208 -0.184375,-0.345199 -0.345197,-0.345199 z M 26.184799,3.571914 a 0.29026163,0.29026163 0 0 1 -0.290262,0.290262 0.29026163,0.29026163 0 0 1 -0.290261,-0.290262 0.29026163,0.29026163 0 0 1 0.290261,-0.290262 0.29026163,0.29026163 0 0 1 0.290262,0.290262 z m 0.0951,1.297264 A 0.29026163,0.29026163 0 0 1 25.989638,5.15944 0.29026163,0.29026163 0 0 1 25.699376,4.869178 0.29026163,0.29026163 0 0 1 25.989638,4.578917 0.29026163,0.29026163 0 0 1 26.279899,4.869178 Z m 3.182579,1.077566 a 0.29026163,0.29026163 0 0 1 -0.290261,0.290262 0.29026163,0.29026163 0 0 1 -0.290262,-0.290262 0.29026163,0.29026163 0 0 1 0.290262,-0.290261 0.29026163,0.29026163 0 0 1 0.290261,0.290261 z m -3.603107,35.521237 c 0.180883,0 0.326504,0.178303 0.326504,0.399783 v 0.471456 c 0,0.22148 -0.145621,0.399783 -0.326504,0.399783 -0.180884,0 -0.326505,-0.178303 -0.326505,-0.399783 v -0.471456 c 0,-0.22148 0.145621,-0.399783 0.326505,-0.399783 z M 60.395588,25.617162 a 0.29026163,0.29026163 0 0 1 -0.290262,0.290262 0.29026163,0.29026163 0 0 1 -0.290262,-0.290262 0.29026163,0.29026163 0 0 1 0.290262,-0.290262 0.29026163,0.29026163 0 0 1 0.290262,0.290262 z M 27.786918,37.32884 a 0.29026163,0.29026163 0 0 1 -0.290261,0.290261 0.29026163,0.29026163 0 0 1 -0.290262,-0.290261 0.29026163,0.29026163 0 0 1 0.290262,-0.290262 0.29026163,0.29026163 0 0 1 0.290261,0.290262 z M 24.660269,9.354342 c -0.05912,-0.209844 0.59246,-0.930152 0.825461,-0.956315 0.264832,-0.02974 0.679112,0.405335 0.943367,0.676748 0.156143,0.160373 0.237814,0.792482 -0.32965,1.049649 -0.467857,0.212027 -1.362084,-0.496426 -1.439178,-0.770082 z" />
    </g>
    <use
       x="0"
       y="0"
       xlink:href="#g2415"
       id="use2735"
       transform="translate(0,44.313872)"
       width="100%"
       height="100%" />
    <use
       x="0"
       y="0"
       xlink:href="#g2415"
       id="use2739"
       transform="translate(0,88.627746)"
       width="100%"
       height="100%" />
    <use
       x="0"
       y="0"
       xlink:href="#g2415"
       id="use2741"
       transform="translate(0,132.94162)"
       width="100%"
       height="100%" />
    <use
       x="0"
       y="0"
       xlink:href="#g2415"
       id="use2743"
       transform="translate(-63.498849,44.313872)"
       width="100%"
       height="100%" />
    <use
       x="0"
       y="0"
       xlink:href="#g2415"
       id="use2745"
       transform="translate(-63.498849,88.627746)"
       width="100%"
       height="100%" />
    <use
       x="0"
       y="0"
       xlink:href="#g2415"
       id="use2747"
       transform="translate(-63.498849,132.94162)"
       width="100%"
       height="100%" />
    <use
       x="0"
       y="0"
       xlink:href="#g2415"
       id="use2749"
       transform="translate(-63.498849)"
       width="100%"
       height="100%" />
    <use
       x="0"
       y="0"
       xlink:href="#g2415"
       id="use2751"
       transform="translate(-63.498849,177.25549)"
       width="100%"
       height="100%" />
    <use
       x="0"
       y="0"
       xlink:href="#g2415"
       id="use2767"
       transform="translate(0,221.56936)"
       width="100%"
       height="100%" />
    <use
       x="0"
       y="0"
       xlink:href="#g2415"
       id="use2757"
       transform="translate(0,177.25549)"
       width="100%"
       height="100%" />
    <g
       id="g5558"
       transform="rotate(90,-22.630965,0.69318466)">
      <rect
         style="font-variation-settings:normal;opacity:1;vector-effect:none;fill:#ffffff;fill-opacity:1;stroke:none;stroke-width:0.264583;stroke-opacity:1;stop-color:#000000;stop-opacity:1"
         id="rect2311-9"
         width="44.313873"
         height="63.498852"
         x="-13.416698"
         y="-95.188362"
         ry="0.39978278" />
      <g
         id="g4988"
         transform="matrix(0.97281495,0,0,0.97281495,-6.5748223,-233.18775)">
        <rect
           style="vector-effect:none;fill:#6a97c0;fill-opacity:1;stroke:none;stroke-width:0.600001;stroke-linecap:round;stroke-linejoin:miter;stroke-miterlimit:4;stroke-dasharray:none;stroke-dashoffset:0;stroke-opacity:1;paint-order:normal"
           id="rect35739-6"
           width="38.060326"
           height="58.172714"
           x="-3.2844677"
           y="145.23991"
           rx="2.2"
           ry="2.2" />
        <path
           id="rect26316-1"
           d="m 25.784573,148.97402 v 5.74073 h 5.234823 v 44.98898 H 0.47197553 v -50.72971 z"
           style="vector-effect:none;fill:#ffffff;fill-opacity:1;stroke:none;stroke-width:1.01345;stroke-linecap:round;stroke-linejoin:miter;stroke-miterlimit:4;stroke-dasharray:none;stroke-dashoffset:0;stroke-opacity:1;paint-order:normal"
           inkscape:connector-curvature="0"
           sodipodi:nodetypes="ccccccc" />
        <path
           sodipodi:nodetypes="cccc"
           inkscape:connector-curvature="0"
           id="rect26321-5"
           d="m 26.483294,149.44427 v 4.46773 h 4.467722 z"
           style="vector-effect:none;fill:#ffffff;fill-opacity:1;stroke:none;stroke-width:1.08755;stroke-linecap:round;stroke-linejoin:miter;stroke-miterlimit:4;stroke-dasharray:none;stroke-dashoffset:0;stroke-opacity:1;paint-order:normal" />
        <path
           d="m 20.576567,151.88875 -0.595629,0.23825 c -0.05956,0 -0.05956,0 -0.119126,0 l -2.799454,1.25082 v 0 l -0.357378,0.17868 -0.714755,0.35738 c -0.297815,0.11913 -0.536063,0.29782 -0.714752,0.53606 v 0 l -1.489074,2.38252 c -0.119125,0 -0.238251,0 -0.357377,0.0596 l -0.774314,-2.20382 -0.476504,-0.77433 -2.382517,-1.84644 -0.297815,0.17869 1.489073,2.50164 0.119122,0.4765 0.357382,1.54864 c -0.238252,-0.11912 -0.476504,-0.23825 -0.714755,-0.35738 -0.536067,0 -0.953007,0.41694 -0.893444,0.953 0,0 0,0 0,0 0,0.11913 0,0.23826 0.05956,0.35739 v 0 l 0.178688,1.19125 0.476504,-0.59562 0.238252,1.31037 c 0.119126,0.6552 0.655192,1.19126 1.31038,1.42952 l 1.310385,0.35737 v 0 c 0.119126,0.0596 0.297815,0.11913 0.476503,0.11913 l 0.119126,1.19126 c 0,0.0596 0,0.11912 0,0.23825 0,0 0,0 0.05956,0.0596 l 0.05956,0.59563 1.310385,1.07212 h 0.953004 v -0.11912 c 0.119126,0 0.178689,0 0.238252,-0.11912 l -0.05956,-0.59563 0.357377,0.59563 c 0.119126,0.11912 0.238252,0.17868 0.416941,0.17868 v 0 l 0.714755,-0.17868 c 0.05956,0 0.178689,0 0.238248,-0.0596 v 0 -0.0596 c 0,0 0,-0.0596 0,-0.0596 l 0.238256,-0.83389 h -0.178689 c -0.05957,-0.0596 -0.05957,-0.17868 -0.119126,-0.23824 l -2.144266,-2.14427 -1.131693,-1.19125 0.893441,-0.41695 c 0.178689,-0.0595 0.297815,-0.17868 0.297815,-0.35738 l 0.178689,-0.17869 0.297815,-0.23824 c 0.178688,-0.0596 0.297814,-0.29782 0.238251,-0.53607 0,0 0,-0.0596 -0.05956,-0.0596 v 0 l 0.476504,-0.23826 c 0.238252,-0.11911 0.357373,-0.41693 0.238252,-0.71474 l 0.119121,-0.17869 0.357382,-0.1787 c 0.178689,-0.11912 0.297811,-0.35737 0.178689,-0.53606 l 0.357377,-0.4765 0.119122,-0.0596 c 0.119126,-0.0596 0.178693,-0.1787 0.178693,-0.29781 l 0.297811,-0.35739 1.131696,-1.36994 0.833878,-1.07213 c 0.178692,-0.23825 0.119129,-0.47651 -0.119123,-0.65519 -0.178689,-0.0596 -0.297815,-0.0596 -0.416941,-0.0596 z"
           id="path2259"
           style="fill:#6a97c0;fill-opacity:1;stroke-width:0.257447" />
        <g
           transform="matrix(0.38562939,0,0,0.38562939,91.238319,102.51765)"
           id="g38993"
           style="display:inline;fill:#6a97c0;fill-opacity:1">
          <path
             style="font-style:normal;font-variant:normal;font-weight:900;font-stretch:normal;font-size:42.6667px;line-height:1.25;font-family:EskapadeFrakturW04-Black;-inkscape-font-specification:'EskapadeFrakturW04-Black, Heavy';font-variant-ligatures:normal;font-variant-caps:normal;font-variant-numeric:normal;font-feature-settings:normal;text-align:start;letter-spacing:0px;word-spacing:0px;writing-mode:lr-tb;text-anchor:start;fill:#6a97c0;fill-opacity:1;stroke:none;stroke-width:0.931746"
             d="m -214.12763,169.23804 -1.68608,2.91019 2.10152,0.32348 v 9.05194 l -1.45457,-0.1618 -0.92391,2.95564 7.25406,0.92391 c 0.53882,-0.36948 0.66004,-0.93851 1.44519,-1.70828 0.80055,-0.76974 1.33918,-1.37809 1.6163,-1.82454 0.23091,-1.17003 0.29277,-1.40434 0.18492,-2.86687 l -2.22422,-1.96303 1.78448,-1.54655 c -0.0616,-0.66198 -0.20778,-2.46073 -0.43871,-3.2305 -0.23093,-0.78514 -0.52331,-1.49356 -0.87738,-2.12476 h -3.52345 z m 3.25821,3.62585 h 1.34041 c 0.21553,0.38488 0.37637,0.76267 0.48416,1.13215 0.12314,0.35409 0.23876,0.86916 0.34652,1.54654 l -1.47106,1.24077 v 1.0289 l 1.58648,1.35619 c 0.0616,0.63119 0.0773,1.15411 0.0464,1.56978 -0.0164,0.41567 -0.0773,0.91607 -0.18492,1.50109 l -2.14806,-0.25476 z"
             id="path22377"
             inkscape:connector-curvature="0"
             sodipodi:nodetypes="ccccccccccccccccccccccccccc" />
          <path
             d="m -177.98145,169.0075 -2.63544,4.89544 v 4.57195 h -1.27064 v 1.87106 h 1.27064 v 4.64175 h 2.84369 v -4.64175 h 2.79392 v 4.27176 l 2.91259,0.62369 1.4091,-3.07088 -1.47888,-0.2315 v -8.47478 l -1.11128,-3.7876 z m 0.20825,3.35207 2.79392,0.5275 v 5.58782 h -2.79392 z"
             id="path26905"
             inkscape:connector-curvature="0"
             sodipodi:nodetypes="cccccccccccccccccccccc"
             style="font-style:normal;font-variant:normal;font-weight:900;font-stretch:normal;font-size:42.6667px;line-height:1.25;font-family:EskapadeFrakturW04-Black;-inkscape-font-specification:'EskapadeFrakturW04-Black, Heavy';font-variant-ligatures:normal;font-variant-caps:normal;font-variant-numeric:normal;font-feature-settings:normal;text-align:start;letter-spacing:0px;word-spacing:0px;writing-mode:lr-tb;text-anchor:start;fill:#6a97c0;fill-opacity:1;stroke:none;stroke-width:0.541236" />
          <path
             sodipodi:nodetypes="cccccccccc"
             inkscape:connector-curvature="0"
             id="path26931"
             d="m -168.7742,169.9179 -1.45564,2.46096 1.87109,0.36997 v 10.21686 l 1.77803,1.9755 4.44751,0.30021 0.87741,-2.57592 -4.25918,-0.25476 v -11.59217 z"
             style="font-style:normal;font-variant:normal;font-weight:900;font-stretch:normal;font-size:42.6667px;line-height:1.25;font-family:EskapadeFrakturW04-Black;-inkscape-font-specification:'EskapadeFrakturW04-Black, Heavy';font-variant-ligatures:normal;font-variant-caps:normal;font-variant-numeric:normal;font-feature-settings:normal;text-align:start;letter-spacing:0px;word-spacing:0px;writing-mode:lr-tb;text-anchor:start;fill:#6a97c0;fill-opacity:1;stroke:none;stroke-width:0.541236" />
          <path
             sodipodi:nodetypes="ccccccccccccccccccccc"
             inkscape:connector-curvature="0"
             id="path25585"
             d="m -193.43997,169.67067 -1.31609,2.47763 2.12478,0.11516 v 12.70106 h 2.90197 v -12.48964 l 1.34573,0.13521 c 0.40026,1.07765 0.60045,2.30116 0.60045,3.67133 l -2.54663,1.87773 v 0.35594 l 2.06141,1.66914 1.52433,4.36477 3.25588,0.6924 0.86513,-2.389 -1.54759,-0.30021 -1.5698,-3.31768 -1.25838,-1.51384 2.38662,-1.36154 c 0.0309,-0.84674 -0.0468,-2.81059 -0.23151,-3.84205 -0.18472,-1.03148 -0.44674,-1.50713 -0.78543,-2.24611 z"
             style="font-style:normal;font-variant:normal;font-weight:900;font-stretch:normal;font-size:11.2889px;line-height:1.25;font-family:EskapadeFrakturW04-Black;-inkscape-font-specification:'EskapadeFrakturW04-Black, Heavy';font-variant-ligatures:normal;font-variant-caps:normal;font-variant-numeric:normal;font-feature-settings:normal;text-align:start;letter-spacing:0px;word-spacing:0px;writing-mode:lr-tb;text-anchor:start;fill:#6a97c0;fill-opacity:1;stroke:none;stroke-width:0.541236" />
          <path
             inkscape:connector-curvature="0"
             id="path26167-4"
             style="font-style:normal;font-variant:normal;font-weight:900;font-stretch:normal;font-size:11.2889px;line-height:1.25;font-family:EskapadeFrakturW04-Black;-inkscape-font-specification:'EskapadeFrakturW04-Black, Heavy';font-variant-ligatures:normal;font-variant-caps:normal;font-variant-numeric:normal;font-feature-settings:normal;text-align:start;letter-spacing:0px;word-spacing:0px;writing-mode:lr-tb;text-anchor:start;fill:#6a97c0;fill-opacity:1;stroke:none;stroke-width:0.541234"
             d="m -217.83277,170.39283 v 14.84857 h -2.90331 v -12.37769 l -1.87051,-0.36948 1.45485,-3.00202 z"
             sodipodi:nodetypes="ccccccc" />
          <path
             style="font-style:normal;font-variant:normal;font-weight:900;font-stretch:normal;font-size:11.2889px;line-height:1.25;font-family:EskapadeFrakturW04-Black;-inkscape-font-specification:'EskapadeFrakturW04-Black, Heavy';font-variant-ligatures:normal;font-variant-caps:normal;font-variant-numeric:normal;font-feature-settings:normal;text-align:start;letter-spacing:0px;word-spacing:0px;writing-mode:lr-tb;text-anchor:start;fill:#6a97c0;fill-opacity:1;stroke:none;stroke-width:0.541216"
             d="m -201.06471,169.40016 -2.50488,3.95775 v 9.04307 l 1.80123,2.51687 5.75043,0.32355 0.96933,-2.27679 -5.41268,-0.30009 v -4.16604 h 3.74992 v -2.428 h -3.74992 v -4.15517 l 4.48986,0.54544 1.06129,-2.29827 z"
             id="path26169-6"
             inkscape:connector-curvature="0"
             sodipodi:nodetypes="ccccccccccccccc" />
          <path
             style="font-style:normal;font-variant:normal;font-weight:900;font-stretch:normal;font-size:42.6667px;line-height:1.25;font-family:EskapadeFrakturW04-Black;-inkscape-font-specification:'EskapadeFrakturW04-Black, Heavy';font-variant-ligatures:normal;font-variant-caps:normal;font-variant-numeric:normal;font-feature-settings:normal;text-align:start;letter-spacing:0px;word-spacing:0px;writing-mode:lr-tb;text-anchor:start;fill:#6a97c0;fill-opacity:1;stroke:none;stroke-width:0.541236"
             d="m -230.71002,169.9179 -1.45564,2.46096 1.87109,0.36997 v 10.21686 l 1.77803,1.9755 4.44751,0.30021 0.87741,-2.57592 -4.25918,-0.25476 v -11.59217 z"
             id="path38984"
             inkscape:connector-curvature="0"
             sodipodi:nodetypes="cccccccccc" />
        </g>
        <g
           id="g9435-6"
           transform="matrix(0.26458333,0,0,0.26458333,-6.616831,-154.31158)"
           style="display:inline;fill:#6a97c0;fill-opacity:1">
          <circle
             r="1.3107344"
             cy="1249.401"
             cx="35.480225"
             id="path9358-1"
             style="opacity:1;vector-effect:none;fill:#6a97c0;fill-opacity:1;stroke:none;stroke-width:4;stroke-linecap:round;stroke-linejoin:miter;stroke-miterlimit:4;stroke-dasharray:none;stroke-dashoffset:0;stroke-opacity:1;paint-order:normal" />
          <use
             height="100%"
             width="100%"
             transform="translate(4.0866269)"
             id="use9362-7"
             xlink:href="#path9358-1"
             y="0"
             x="0"
             style="fill:#6a97c0;fill-opacity:1" />
          <use
             x="0"
             y="0"
             xlink:href="#path9358-1"
             id="use9364-2"
             transform="translate(8.1732576)"
             width="100%"
             height="100%"
             style="fill:#6a97c0;fill-opacity:1" />
          <use
             height="100%"
             width="100%"
             transform="translate(12.259888)"
             id="use9366-2"
             xlink:href="#path9358-1"
             y="0"
             x="0"
             style="fill:#6a97c0;fill-opacity:1" />
          <use
             x="0"
             y="0"
             xlink:href="#path9358-1"
             id="use9368-9"
             transform="translate(16.346511)"
             width="100%"
             height="100%"
             style="fill:#6a97c0;fill-opacity:1" />
          <use
             x="0"
             y="0"
             xlink:href="#path9358-1"
             id="use9370-2"
             transform="translate(20.433144)"
             width="100%"
             height="100%"
             style="fill:#6a97c0;fill-opacity:1" />
          <use
             height="100%"
             width="100%"
             transform="translate(24.51977)"
             id="use9372-8"
             xlink:href="#path9358-1"
             y="0"
             x="0"
             style="fill:#6a97c0;fill-opacity:1" />
          <use
             x="0"
             y="0"
             xlink:href="#path9358-1"
             id="use9374-1"
             transform="translate(28.606401)"
             width="100%"
             height="100%"
             style="fill:#6a97c0;fill-opacity:1" />
          <use
             height="100%"
             width="100%"
             transform="translate(32.693024)"
             id="use9376-2"
             xlink:href="#path9358-1"
             y="0"
             x="0"
             style="fill:#6a97c0;fill-opacity:1" />
          <use
             height="100%"
             width="100%"
             transform="translate(36.779655)"
             id="use9378-4"
             xlink:href="#path9358-1"
             y="0"
             x="0"
             style="fill:#6a97c0;fill-opacity:1" />
          <use
             x="0"
             y="0"
             xlink:href="#path9358-1"
             id="use9380-7"
             transform="translate(40.866289)"
             width="100%"
             height="100%"
             style="fill:#6a97c0;fill-opacity:1" />
          <use
             height="100%"
             width="100%"
             transform="translate(44.952908)"
             id="use9382-8"
             xlink:href="#path9358-1"
             y="0"
             x="0"
             style="fill:#6a97c0;fill-opacity:1" />
          <use
             x="0"
             y="0"
             xlink:href="#path9358-1"
             id="use9384-6"
             transform="translate(49.039546)"
             width="100%"
             height="100%"
             style="fill:#6a97c0;fill-opacity:1" />
          <use
             x="0"
             y="0"
             xlink:href="#path9358-1"
             id="use9386-3"
             transform="translate(53.126175)"
             width="100%"
             height="100%"
             style="fill:#6a97c0;fill-opacity:1" />
          <use
             height="100%"
             width="100%"
             transform="translate(57.212802)"
             id="use9388-7"
             xlink:href="#path9358-1"
             y="0"
             x="0"
             style="fill:#6a97c0;fill-opacity:1" />
          <use
             x="0"
             y="0"
             xlink:href="#path9358-1"
             id="use9390-7"
             transform="translate(61.299421)"
             width="100%"
             height="100%"
             style="fill:#6a97c0;fill-opacity:1" />
          <use
             height="100%"
             width="100%"
             transform="translate(65.386052)"
             id="use9392-2"
             xlink:href="#path9358-1"
             y="0"
             x="0"
             style="fill:#6a97c0;fill-opacity:1" />
          <use
             height="100%"
             width="100%"
             transform="translate(69.472687)"
             id="use9394-3"
             xlink:href="#path9358-1"
             y="0"
             x="0"
             style="fill:#6a97c0;fill-opacity:1" />
          <use
             x="0"
             y="0"
             xlink:href="#path9358-1"
             id="use9396-7"
             transform="translate(73.559314)"
             width="100%"
             height="100%"
             style="fill:#6a97c0;fill-opacity:1" />
          <use
             height="100%"
             width="100%"
             transform="translate(77.64594)"
             id="use9398-2"
             xlink:href="#path9358-1"
             y="0"
             x="0"
             style="fill:#6a97c0;fill-opacity:1" />
          <use
             x="0"
             y="0"
             xlink:href="#path9358-1"
             id="use9400-5"
             transform="translate(81.732563)"
             width="100%"
             height="100%"
             style="fill:#6a97c0;fill-opacity:1" />
          <use
             x="0"
             y="0"
             xlink:href="#path9358-1"
             id="use9402-3"
             transform="translate(85.819198)"
             width="100%"
             height="100%"
             style="fill:#6a97c0;fill-opacity:1" />
          <use
             height="100%"
             width="100%"
             transform="translate(89.905825)"
             id="use9404-7"
             xlink:href="#path9358-1"
             y="0"
             x="0"
             style="fill:#6a97c0;fill-opacity:1" />
          <use
             x="0"
             y="0"
             xlink:href="#path9358-1"
             id="use9406-6"
             transform="translate(93.992467)"
             width="100%"
             height="100%"
             style="fill:#6a97c0;fill-opacity:1" />
          <use
             height="100%"
             width="100%"
             transform="translate(98.07909)"
             id="use9408-8"
             xlink:href="#path9358-1"
             y="0"
             x="0"
             style="fill:#6a97c0;fill-opacity:1" />
        </g>
        <g
           id="g2913"
           style="stroke:#6996bf;stroke-opacity:1"
           transform="translate(-48.364481,-36.380552)">
          <path
             inkscape:connector-curvature="0"
             id="path35667-1"
             d="m 71.244465,215.21462 h 5.882254"
             style="fill:none;stroke:#6996bf;stroke-width:0.6;stroke-linecap:butt;stroke-linejoin:miter;stroke-miterlimit:4;stroke-dasharray:none;stroke-opacity:1" />
          <path
             style="fill:none;stroke:#6996bf;stroke-width:0.6;stroke-linecap:butt;stroke-linejoin:miter;stroke-miterlimit:4;stroke-dasharray:none;stroke-opacity:1"
             d="m 71.244465,217.47363 h 5.882254"
             id="path35669-3"
             inkscape:connector-curvature="0" />
          <path
             sodipodi:nodetypes="cc"
             inkscape:connector-curvature="0"
             id="path35671-6"
             d="m 51.093609,219.73262 h 26.03311"
             style="fill:none;stroke:#6996bf;stroke-width:0.6;stroke-linecap:butt;stroke-linejoin:miter;stroke-miterlimit:4;stroke-dasharray:none;stroke-opacity:1" />
          <path
             style="fill:none;stroke:#6996bf;stroke-width:0.6;stroke-linecap:butt;stroke-linejoin:miter;stroke-miterlimit:4;stroke-dasharray:none;stroke-opacity:1"
             d="m 51.093609,221.99162 h 26.03311"
             id="path35673-4"
             inkscape:connector-curvature="0"
             sodipodi:nodetypes="cc" />
          <path
             sodipodi:nodetypes="cc"
             inkscape:connector-curvature="0"
             id="path35675-0"
             d="M 51.093609,224.25062 H 73.724933"
             style="fill:none;stroke:#6996bf;stroke-width:0.6;stroke-linecap:butt;stroke-linejoin:miter;stroke-miterlimit:4;stroke-dasharray:none;stroke-opacity:1" />
          <path
             style="fill:none;stroke:#6996bf;stroke-width:0.6;stroke-linecap:butt;stroke-linejoin:miter;stroke-miterlimit:4;stroke-dasharray:none;stroke-opacity:1"
             d="m 51.093609,228.75297 h 26.03311"
             id="path35677-3"
             inkscape:connector-curvature="0"
             sodipodi:nodetypes="cc" />
          <path
             sodipodi:nodetypes="cc"
             inkscape:connector-curvature="0"
             id="path35679-5"
             d="m 51.093609,231.01197 h 26.03311"
             style="fill:none;stroke:#6996bf;stroke-width:0.6;stroke-linecap:butt;stroke-linejoin:miter;stroke-miterlimit:4;stroke-dasharray:none;stroke-opacity:1" />
          <path
             style="fill:none;stroke:#6996bf;stroke-width:0.6;stroke-linecap:butt;stroke-linejoin:miter;stroke-miterlimit:4;stroke-dasharray:none;stroke-opacity:1"
             d="m 51.093609,233.27097 h 26.03311"
             id="path35681-8"
             inkscape:connector-curvature="0"
             sodipodi:nodetypes="cc" />
        </g>
        <text
           id="text35685-5"
           y="181.43127"
           x="2.7666912"
           style="font-style:normal;font-variant:normal;font-weight:normal;font-stretch:normal;font-size:3.90814px;line-height:1.25;font-family:'Futura Hv BT';-inkscape-font-specification:'Futura Hv BT, Normal';font-variant-ligatures:normal;font-variant-caps:normal;font-variant-numeric:normal;font-feature-settings:normal;text-align:start;letter-spacing:0.599014px;word-spacing:0px;writing-mode:lr-tb;text-anchor:start;fill:#6a97c0;fill-opacity:1;stroke:none;stroke-width:0.162845"
           xml:space="preserve"><tspan
             style="font-style:normal;font-variant:normal;font-weight:normal;font-stretch:normal;font-size:3.90814px;font-family:'Futura Hv BT';-inkscape-font-specification:'Futura Hv BT, Normal';font-variant-ligatures:normal;font-variant-caps:normal;font-variant-numeric:normal;font-feature-settings:normal;text-align:start;letter-spacing:0.599014px;writing-mode:lr-tb;text-anchor:start;fill:#6a97c0;fill-opacity:1;stroke-width:0.162845"
             y="181.43127"
             x="2.7666912"
             id="tspan35683-0"
             sodipodi:role="line">ARTICLE</tspan></text>
      </g>
      <path
         id="path5272"
         style="font-variation-settings:normal;vector-effect:none;fill:#ffffff;fill-opacity:1;stroke:none;stroke-width:0.220094;stroke-linecap:butt;stroke-linejoin:miter;stroke-miterlimit:4;stroke-dasharray:none;stroke-dashoffset:0;stroke-opacity:1;stop-color:#000000"
         d="m 27.58298,-42.172695 c -0.681089,-0.444945 -1.061684,-0.598019 -1.354245,-0.34271 -0.292561,0.25531 -0.25447,0.820325 -0.0034,1.037812 0.25111,0.217491 0.522804,0.573405 0.921918,0.606727 0.399114,0.03332 0.533946,-0.04575 0.533946,-0.04575 z m -0.514574,-32.462651 a 0.35539481,0.59554368 0 0 1 -0.355395,0.595543 0.35539481,0.59554368 0 0 1 -0.355395,-0.595543 0.35539481,0.59554368 0 0 1 0.355395,-0.595544 0.35539481,0.59554368 0 0 1 0.355395,0.595544 z m 0.486858,-8.756408 c -0.966716,0.0072 -2.251603,0.1539 -2.253564,-0.179483 -0.002,-0.333383 0.34353,-0.411379 0.610794,-0.411379 0.267263,0 0.880406,0.02257 1.04186,-0.227579 0.161454,-0.250158 0.07984,-1.028112 0.07984,-1.028112 -0.01122,0.06959 -0.801774,-0.05747 -0.606618,-0.465045 0.153662,-0.320915 0.507757,0.0041 0.58551,0.07617 0.07775,0.07203 0.543687,1.151539 0.543687,1.151539 z m -33.6265668,9.180303 c -0.58782,-0.728292 -1.1275869,-0.642273 -1.2279701,-0.49027 -0.1003829,0.152001 -0.3399009,0.4371 4.763e-4,0.826045 0.3403764,0.388943 0.5066416,0.791845 0.4999873,1.035145 -0.00665,0.243301 0.2851449,0.786366 0.6293556,0.432465 0.344211,-0.353902 0.098152,-1.803385 0.098152,-1.803385 z m -4.1294192,2.056369 c 0.2529717,0.634629 0.4055677,1.29205 0.6783217,1.291256 0.272753,-7.94e-4 0.4611728,0.158263 0.4628032,0.571363 0.00164,0.413096 -0.1146389,1.591217 -0.2085232,1.786554 -0.09389,0.195339 -0.50708,0.155194 -0.53826,-0.05406 -0.03118,-0.209248 0.09206,-0.995201 0.0853,-1.141436 -0.0068,-0.146233 -0.140951,-0.656228 -0.265849,-0.650386 -0.1248977,0.0058 -0.2137897,-1.803296 -0.2137897,-1.803296 z m 1.0786702,17.561009 c 0.1848299,0.01136 0.9063027,-0.05137 1.0546395,-0.05546 0.1483365,-0.0041 0.342201,-0.08873 0.3419166,-0.367189 -2.911e-4,-0.278458 -0.04469,-0.860023 -0.04469,-0.860023 0,0 -0.9097804,-0.08412 -0.6240457,-0.506688 0.3734169,-0.552244 0.7147544,0.283666 0.7047058,0.427604 0.181993,-0.0025 0.3243532,-0.02458 0.7107116,-0.06436 0.3863586,-0.03979 0.6522251,0.316793 0.3805139,0.627231 -0.2717112,0.310441 -0.4049162,0.227325 -0.4190185,0.575662 -0.014102,0.348337 0.097506,0.711949 -0.4980421,0.779018 -0.5955482,0.06707 -1.2619548,0.01733 -1.6783537,-0.0049 -0.4571669,-0.0244 -0.3866259,-0.579071 0.071663,-0.550895 z M 8.839526,-39.13217 8.0705296,-38.119863 c -0.2629389,0.346133 -0.4946531,0.247745 -0.6719056,0.07161 L 6.2059093,-39.233448 Z M -7.3543503,-58.102315 a 0.19501396,0.19501396 0 0 1 -0.1950139,0.195014 0.19501396,0.19501396 0 0 1 -0.195014,-0.195014 0.19501396,0.19501396 0 0 1 0.195014,-0.195014 0.19501396,0.19501396 0 0 1 0.1950139,0.195014 z m -2.038974,-14.927692 a 0.19501396,0.19501396 0 0 1 -0.195014,0.195014 0.19501396,0.19501396 0 0 1 -0.195014,-0.195014 0.19501396,0.19501396 0 0 1 0.195014,-0.195014 0.19501396,0.19501396 0 0 1 0.195014,0.195014 z m 32.5742123,37.853306 a 0.19501396,0.19501396 0 0 1 -0.195014,0.195014 0.19501396,0.19501396 0 0 1 -0.195014,-0.195014 0.19501396,0.19501396 0 0 1 0.195014,-0.195014 0.19501396,0.19501396 0 0 1 0.195014,0.195014 z m 3.725333,-0.829907 a 0.19501396,0.19501396 0 0 1 -0.195014,0.195014 0.19501396,0.19501396 0 0 1 -0.195014,-0.195014 0.19501396,0.19501396 0 0 1 0.195014,-0.195014 0.19501396,0.19501396 0 0 1 0.195014,0.195014 z m -0.120545,-1.294914 a 0.19501396,0.19501396 0 0 1 -0.195014,0.195014 0.19501396,0.19501396 0 0 1 -0.195014,-0.195014 0.19501396,0.19501396 0 0 1 0.195014,-0.195014 0.19501396,0.19501396 0 0 1 0.195014,0.195014 z m -3.135038,-1.09623 a 0.19501396,0.19501396 0 0 1 -0.195014,0.195014 0.19501396,0.19501396 0 0 1 -0.195014,-0.195014 0.19501396,0.19501396 0 0 1 0.195014,-0.195014 0.19501396,0.19501396 0 0 1 0.195014,0.195014 z m 1.664081,-31.496589 a 0.19501396,0.19501396 0 0 1 -0.195014,0.195014 0.19501396,0.19501396 0 0 1 -0.195014,-0.195014 0.19501396,0.19501396 0 0 1 0.195014,-0.195014 0.19501396,0.19501396 0 0 1 0.195014,0.195014 z" />
    </g>
    <use
       x="0"
       y="0"
       xlink:href="#g5558"
       id="use5672"
       transform="translate(0,221.56935)"
       width="100%"
       height="100%" />
    <use
       x="0"
       y="0"
       xlink:href="#g5558"
       id="use5674"
       transform="translate(0,44.313872)"
       width="100%"
       height="100%" />
    <use
       x="0"
       y="0"
       xlink:href="#g5558"
       id="use5676"
       transform="translate(0,88.627746)"
       width="100%"
       height="100%" />
    <use
       x="0"
       y="0"
       xlink:href="#g5558"
       id="use5678"
       transform="translate(0,132.94161)"
       width="100%"
       height="100%" />
    <use
       x="0"
       y="0"
       xlink:href="#g5558"
       id="use5670"
       transform="translate(0,177.25548)"
       width="100%"
       height="100%" />
  </g>
  <g
     inkscape:groupmode="layer"
     id="layer2"
     inkscape:label="grid"
     sodipodi:insensitive="true">
    <g
       id="g6945"
       transform="matrix(0,0.35277777,0.35277777,0,-23.21481,-61.697163)">
      <path
         style="fill:none;stroke:#000000;stroke-width:0.75px;stroke-linecap:butt;stroke-linejoin:miter;stroke-opacity:1"
         d="m 202.97372,637.74244 v -8.60753"
         id="path6941" />
      <path
         style="fill:none;stroke:#000000;stroke-width:0.75px;stroke-linecap:butt;stroke-linejoin:miter;stroke-opacity:1"
         d="m 198.66995,633.43867 h 8.60753"
         id="path6943" />
    </g>
    <g
       id="g6543"
       transform="matrix(0,0.35277777,0.35277777,0,-23.21481,-17.383288)">
      <path
         style="fill:none;stroke:#000000;stroke-width:0.75px;stroke-linecap:butt;stroke-linejoin:miter;stroke-opacity:1"
         d="m 202.97372,637.74244 v -8.60753"
         id="path6539" />
      <path
         style="fill:none;stroke:#000000;stroke-width:0.75px;stroke-linecap:butt;stroke-linejoin:miter;stroke-opacity:1"
         d="m 198.66995,633.43867 h 8.60753"
         id="path6541" />
    </g>
    <g
       id="g6549"
       transform="matrix(0,0.35277777,0.35277777,0,-23.21481,26.930583)">
      <path
         style="fill:none;stroke:#000000;stroke-width:0.75px;stroke-linecap:butt;stroke-linejoin:miter;stroke-opacity:1"
         d="m 202.97372,637.74244 v -8.60753"
         id="path6545" />
      <path
         style="fill:none;stroke:#000000;stroke-width:0.75px;stroke-linecap:butt;stroke-linejoin:miter;stroke-opacity:1"
         d="m 198.66995,633.43867 h 8.60753"
         id="path6547" />
    </g>
    <g
       id="g6555"
       transform="matrix(0,0.35277777,0.35277777,0,-23.21481,71.244458)">
      <path
         style="fill:none;stroke:#000000;stroke-width:0.75px;stroke-linecap:butt;stroke-linejoin:miter;stroke-opacity:1"
         d="m 202.97372,637.74244 v -8.60753"
         id="path6551" />
      <path
         style="fill:none;stroke:#000000;stroke-width:0.75px;stroke-linecap:butt;stroke-linejoin:miter;stroke-opacity:1"
         d="m 198.66995,633.43867 h 8.60753"
         id="path6553" />
    </g>
    <g
       id="g6561"
       transform="matrix(0,0.35277777,0.35277777,0,-23.21481,115.55832)">
      <path
         style="fill:none;stroke:#000000;stroke-width:0.75px;stroke-linecap:butt;stroke-linejoin:miter;stroke-opacity:1"
         d="m 202.97372,637.74244 v -8.60753"
         id="path6557" />
      <path
         style="fill:none;stroke:#000000;stroke-width:0.75px;stroke-linecap:butt;stroke-linejoin:miter;stroke-opacity:1"
         d="m 198.66995,633.43867 h 8.60753"
         id="path6559" />
    </g>
    <g
       id="g6567"
       transform="matrix(0,0.35277777,0.35277777,0,-23.21481,159.87221)">
      <path
         style="fill:none;stroke:#000000;stroke-width:0.75px;stroke-linecap:butt;stroke-linejoin:miter;stroke-opacity:1"
         d="m 202.97372,637.74244 v -8.60753"
         id="path6563" />
      <path
         style="fill:none;stroke:#000000;stroke-width:0.75px;stroke-linecap:butt;stroke-linejoin:miter;stroke-opacity:1"
         d="m 198.66995,633.43867 h 8.60753"
         id="path6565" />
    </g>
    <g
       id="g6573"
       transform="matrix(0,0.35277777,0.35277777,0,-23.21481,204.18608)">
      <path
         style="fill:none;stroke:#000000;stroke-width:0.75px;stroke-linecap:butt;stroke-linejoin:miter;stroke-opacity:1"
         d="m 202.97372,637.74244 v -8.60753"
         id="path6569" />
      <path
         style="fill:none;stroke:#000000;stroke-width:0.75px;stroke-linecap:butt;stroke-linejoin:miter;stroke-opacity:1"
         d="m 198.66995,633.43867 h 8.60753"
         id="path6571" />
    </g>
    <g
       id="g6585"
       transform="matrix(0,0.35277777,0.35277777,0,-86.71366,-61.697163)">
      <path
         style="fill:none;stroke:#000000;stroke-width:0.75px;stroke-linecap:butt;stroke-linejoin:miter;stroke-opacity:1"
         d="m 202.97372,637.74244 v -8.60753"
         id="path6581" />
      <path
         style="fill:none;stroke:#000000;stroke-width:0.75px;stroke-linecap:butt;stroke-linejoin:miter;stroke-opacity:1"
         d="m 198.66995,633.43867 h 8.60753"
         id="path6583" />
    </g>
    <g
       id="g6591"
       transform="matrix(0,0.35277777,0.35277777,0,-86.71366,-17.383288)">
      <path
         style="fill:none;stroke:#000000;stroke-width:0.75px;stroke-linecap:butt;stroke-linejoin:miter;stroke-opacity:1"
         d="m 202.97372,637.74244 v -8.60753"
         id="path6587" />
      <path
         style="fill:none;stroke:#000000;stroke-width:0.75px;stroke-linecap:butt;stroke-linejoin:miter;stroke-opacity:1"
         d="m 198.66995,633.43867 h 8.60753"
         id="path6589" />
    </g>
    <g
       id="g6597"
       transform="matrix(0,0.35277777,0.35277777,0,-86.71366,26.930583)">
      <path
         style="fill:none;stroke:#000000;stroke-width:0.75px;stroke-linecap:butt;stroke-linejoin:miter;stroke-opacity:1"
         d="m 202.97372,637.74244 v -8.60753"
         id="path6593" />
      <path
         style="fill:none;stroke:#000000;stroke-width:0.75px;stroke-linecap:butt;stroke-linejoin:miter;stroke-opacity:1"
         d="m 198.66995,633.43867 h 8.60753"
         id="path6595" />
    </g>
    <g
       id="g6603"
       transform="matrix(0,0.35277777,0.35277777,0,-86.71366,71.244458)">
      <path
         style="fill:none;stroke:#000000;stroke-width:0.75px;stroke-linecap:butt;stroke-linejoin:miter;stroke-opacity:1"
         d="m 202.97372,637.74244 v -8.60753"
         id="path6599" />
      <path
         style="fill:none;stroke:#000000;stroke-width:0.75px;stroke-linecap:butt;stroke-linejoin:miter;stroke-opacity:1"
         d="m 198.66995,633.43867 h 8.60753"
         id="path6601" />
    </g>
    <g
       id="g6609"
       transform="matrix(0,0.35277777,0.35277777,0,-86.71366,115.55832)">
      <path
         style="fill:none;stroke:#000000;stroke-width:0.75px;stroke-linecap:butt;stroke-linejoin:miter;stroke-opacity:1"
         d="m 202.97372,637.74244 v -8.60753"
         id="path6605" />
      <path
         style="fill:none;stroke:#000000;stroke-width:0.75px;stroke-linecap:butt;stroke-linejoin:miter;stroke-opacity:1"
         d="m 198.66995,633.43867 h 8.60753"
         id="path6607" />
    </g>
    <g
       id="g6615"
       transform="matrix(0,0.35277777,0.35277777,0,-86.71366,159.87221)">
      <path
         style="fill:none;stroke:#000000;stroke-width:0.75px;stroke-linecap:butt;stroke-linejoin:miter;stroke-opacity:1"
         d="m 202.97372,637.74244 v -8.60753"
         id="path6611" />
      <path
         style="fill:none;stroke:#000000;stroke-width:0.75px;stroke-linecap:butt;stroke-linejoin:miter;stroke-opacity:1"
         d="m 198.66995,633.43867 h 8.60753"
         id="path6613" />
    </g>
    <g
       id="g6621"
       transform="matrix(0,0.35277777,0.35277777,0,-86.71366,204.18608)">
      <path
         style="fill:none;stroke:#000000;stroke-width:0.75px;stroke-linecap:butt;stroke-linejoin:miter;stroke-opacity:1"
         d="m 202.97372,637.74244 v -8.60753"
         id="path6617" />
      <path
         style="fill:none;stroke:#000000;stroke-width:0.75px;stroke-linecap:butt;stroke-linejoin:miter;stroke-opacity:1"
         d="m 198.66995,633.43867 h 8.60753"
         id="path6619" />
    </g>
    <g
       id="g6627"
       transform="matrix(0,0.35277777,0.35277777,0,-150.2125,-61.697158)">
      <path
         style="fill:none;stroke:#000000;stroke-width:0.75px;stroke-linecap:butt;stroke-linejoin:miter;stroke-opacity:1"
         d="m 202.97372,637.74244 v -8.60753"
         id="path6623" />
      <path
         style="fill:none;stroke:#000000;stroke-width:0.75px;stroke-linecap:butt;stroke-linejoin:miter;stroke-opacity:1"
         d="m 198.66995,633.43867 h 8.60753"
         id="path6625" />
    </g>
    <g
       id="g6633"
       transform="matrix(0,0.35277777,0.35277777,0,-150.2125,-17.383283)">
      <path
         style="fill:none;stroke:#000000;stroke-width:0.75px;stroke-linecap:butt;stroke-linejoin:miter;stroke-opacity:1"
         d="m 202.97372,637.74244 v -8.60753"
         id="path6629" />
      <path
         style="fill:none;stroke:#000000;stroke-width:0.75px;stroke-linecap:butt;stroke-linejoin:miter;stroke-opacity:1"
         d="m 198.66995,633.43867 h 8.60753"
         id="path6631" />
    </g>
    <g
       id="g6639"
       transform="matrix(0,0.35277777,0.35277777,0,-150.2125,26.930588)">
      <path
         style="fill:none;stroke:#000000;stroke-width:0.75px;stroke-linecap:butt;stroke-linejoin:miter;stroke-opacity:1"
         d="m 202.97372,637.74244 v -8.60753"
         id="path6635" />
      <path
         style="fill:none;stroke:#000000;stroke-width:0.75px;stroke-linecap:butt;stroke-linejoin:miter;stroke-opacity:1"
         d="m 198.66995,633.43867 h 8.60753"
         id="path6637" />
    </g>
    <g
       id="g6645"
       transform="matrix(0,0.35277777,0.35277777,0,-150.2125,71.244463)">
      <path
         style="fill:none;stroke:#000000;stroke-width:0.75px;stroke-linecap:butt;stroke-linejoin:miter;stroke-opacity:1"
         d="m 202.97372,637.74244 v -8.60753"
         id="path6641" />
      <path
         style="fill:none;stroke:#000000;stroke-width:0.75px;stroke-linecap:butt;stroke-linejoin:miter;stroke-opacity:1"
         d="m 198.66995,633.43867 h 8.60753"
         id="path6643" />
    </g>
    <g
       id="g6651"
       transform="matrix(0,0.35277777,0.35277777,0,-150.2125,115.55832)">
      <path
         style="fill:none;stroke:#000000;stroke-width:0.75px;stroke-linecap:butt;stroke-linejoin:miter;stroke-opacity:1"
         d="m 202.97372,637.74244 v -8.60753"
         id="path6647" />
      <path
         style="fill:none;stroke:#000000;stroke-width:0.75px;stroke-linecap:butt;stroke-linejoin:miter;stroke-opacity:1"
         d="m 198.66995,633.43867 h 8.60753"
         id="path6649" />
    </g>
    <g
       id="g6657"
       transform="matrix(0,0.35277777,0.35277777,0,-150.2125,159.87221)">
      <path
         style="fill:none;stroke:#000000;stroke-width:0.75px;stroke-linecap:butt;stroke-linejoin:miter;stroke-opacity:1"
         d="m 202.97372,637.74244 v -8.60753"
         id="path6653" />
      <path
         style="fill:none;stroke:#000000;stroke-width:0.75px;stroke-linecap:butt;stroke-linejoin:miter;stroke-opacity:1"
         d="m 198.66995,633.43867 h 8.60753"
         id="path6655" />
    </g>
    <g
       id="g6663"
       transform="matrix(0,0.35277777,0.35277777,0,-150.2125,204.18608)">
      <path
         style="fill:none;stroke:#000000;stroke-width:0.75px;stroke-linecap:butt;stroke-linejoin:miter;stroke-opacity:1"
         d="m 202.97372,637.74244 v -8.60753"
         id="path6659" />
      <path
         style="fill:none;stroke:#000000;stroke-width:0.75px;stroke-linecap:butt;stroke-linejoin:miter;stroke-opacity:1"
         d="m 198.66995,633.43867 h 8.60753"
         id="path6661" />
    </g>
    <g
       id="g6669"
       transform="matrix(0,0.35277777,0.35277777,0,-213.71135,-61.697158)">
      <path
         style="fill:none;stroke:#000000;stroke-width:0.75px;stroke-linecap:butt;stroke-linejoin:miter;stroke-opacity:1"
         d="m 202.97372,637.74244 v -8.60753"
         id="path6665" />
      <path
         style="fill:none;stroke:#000000;stroke-width:0.75px;stroke-linecap:butt;stroke-linejoin:miter;stroke-opacity:1"
         d="m 198.66995,633.43867 h 8.60753"
         id="path6667" />
    </g>
    <g
       id="g6675"
       transform="matrix(0,0.35277777,0.35277777,0,-213.71135,-17.383283)">
      <path
         style="fill:none;stroke:#000000;stroke-width:0.75px;stroke-linecap:butt;stroke-linejoin:miter;stroke-opacity:1"
         d="m 202.97372,637.74244 v -8.60753"
         id="path6671" />
      <path
         style="fill:none;stroke:#000000;stroke-width:0.75px;stroke-linecap:butt;stroke-linejoin:miter;stroke-opacity:1"
         d="m 198.66995,633.43867 h 8.60753"
         id="path6673" />
    </g>
    <g
       id="g6681"
       transform="matrix(0,0.35277777,0.35277777,0,-213.71135,26.930588)">
      <path
         style="fill:none;stroke:#000000;stroke-width:0.75px;stroke-linecap:butt;stroke-linejoin:miter;stroke-opacity:1"
         d="m 202.97372,637.74244 v -8.60753"
         id="path6677" />
      <path
         style="fill:none;stroke:#000000;stroke-width:0.75px;stroke-linecap:butt;stroke-linejoin:miter;stroke-opacity:1"
         d="m 198.66995,633.43867 h 8.60753"
         id="path6679" />
    </g>
    <g
       id="g6687"
       transform="matrix(0,0.35277777,0.35277777,0,-213.71135,71.244463)">
      <path
         style="fill:none;stroke:#000000;stroke-width:0.75px;stroke-linecap:butt;stroke-linejoin:miter;stroke-opacity:1"
         d="m 202.97372,637.74244 v -8.60753"
         id="path6683" />
      <path
         style="fill:none;stroke:#000000;stroke-width:0.75px;stroke-linecap:butt;stroke-linejoin:miter;stroke-opacity:1"
         d="m 198.66995,633.43867 h 8.60753"
         id="path6685" />
    </g>
    <g
       id="g6693"
       transform="matrix(0,0.35277777,0.35277777,0,-213.71135,115.55832)">
      <path
         style="fill:none;stroke:#000000;stroke-width:0.75px;stroke-linecap:butt;stroke-linejoin:miter;stroke-opacity:1"
         d="m 202.97372,637.74244 v -8.60753"
         id="path6689" />
      <path
         style="fill:none;stroke:#000000;stroke-width:0.75px;stroke-linecap:butt;stroke-linejoin:miter;stroke-opacity:1"
         d="m 198.66995,633.43867 h 8.60753"
         id="path6691" />
    </g>
    <g
       id="g6699"
       transform="matrix(0,0.35277777,0.35277777,0,-213.71135,159.87221)">
      <path
         style="fill:none;stroke:#000000;stroke-width:0.75px;stroke-linecap:butt;stroke-linejoin:miter;stroke-opacity:1"
         d="m 202.97372,637.74244 v -8.60753"
         id="path6695" />
      <path
         style="fill:none;stroke:#000000;stroke-width:0.75px;stroke-linecap:butt;stroke-linejoin:miter;stroke-opacity:1"
         d="m 198.66995,633.43867 h 8.60753"
         id="path6697" />
    </g>
    <g
       id="g6705"
       transform="matrix(0,0.35277777,0.35277777,0,-213.71135,204.18608)">
      <path
         style="fill:none;stroke:#000000;stroke-width:0.75px;stroke-linecap:butt;stroke-linejoin:miter;stroke-opacity:1"
         d="m 202.97372,637.74244 v -8.60753"
         id="path6701" />
      <path
         style="fill:none;stroke:#000000;stroke-width:0.75px;stroke-linecap:butt;stroke-linejoin:miter;stroke-opacity:1"
         d="m 198.66995,633.43867 h 8.60753"
         id="path6703" />
    </g>
  </g>
</svg>
