<?xml version="1.0" encoding="UTF-8" standalone="no"?>
<svg
   xmlns:dc="http://purl.org/dc/elements/1.1/"
   xmlns:cc="http://creativecommons.org/ns#"
   xmlns:rdf="http://www.w3.org/1999/02/22-rdf-syntax-ns#"
   xmlns:svg="http://www.w3.org/2000/svg"
   xmlns="http://www.w3.org/2000/svg"
   xmlns:xlink="http://www.w3.org/1999/xlink"
   xmlns:sodipodi="http://sodipodi.sourceforge.net/DTD/sodipodi-0.dtd"
   xmlns:inkscape="http://www.inkscape.org/namespaces/inkscape"
   version="1.1"
   id="svg5752"
   xml:space="preserve"
   width="210mm"
   height="297mm"
   viewBox="0 0 793.7008 1122.5197"
   sodipodi:docname="roles-back.svg"
   inkscape:version="1.0.1 (3bc2e813f5, 2020-09-07)"><metadata
     id="metadata5758"><rdf:RDF><cc:Work
         rdf:about=""><dc:format>image/svg+xml</dc:format><dc:type
           rdf:resource="http://purl.org/dc/dcmitype/StillImage" /><dc:title></dc:title></cc:Work></rdf:RDF></metadata><defs
     id="defs5756"><clipPath
       id="secret-main-game-clip-2"><use
         xlink:href="#secret-main-game-clip-1"
         style="overflow:visible"
         id="use5825"
         x="0"
         y="0"
         width="100%"
         height="100%" /></clipPath><filter
       inkscape:collect="always"
       style="color-interpolation-filters:sRGB"
       id="filter17017"
       x="-4.1656725e-05"
       width="1.0000833"
       y="-2.9793321e-05"
       height="1.0000596"><feGaussianBlur
         inkscape:collect="always"
         stdDeviation="0.0093670544"
         id="feGaussianBlur17019" /></filter></defs><sodipodi:namedview
     pagecolor="#ffffff"
     bordercolor="#666666"
     borderopacity="1"
     objecttolerance="10"
     gridtolerance="10"
     guidetolerance="10"
     inkscape:pageopacity="0"
     inkscape:pageshadow="2"
     inkscape:window-width="1280"
     inkscape:window-height="656"
     id="namedview5754"
     showgrid="false"
     inkscape:zoom="0.52538385"
     inkscape:cx="338.20592"
     inkscape:cy="638.12213"
     inkscape:window-x="0"
     inkscape:window-y="27"
     inkscape:window-maximized="1"
     inkscape:current-layer="g5760"
     showguides="true"
     inkscape:snap-center="true"
     inkscape:snap-object-midpoints="true"
     inkscape:document-rotation="0"
     units="mm"
     inkscape:snap-others="true"
     inkscape:snap-bbox="true"
     inkscape:bbox-paths="true"
     inkscape:bbox-nodes="true"
     inkscape:guide-bbox="true"
     inkscape:snap-page="true"><sodipodi:guide
       position="37.069697,920.56524"
       orientation="1,0"
       id="guide17864" /><sodipodi:guide
       position="276.92351,937.85027"
       orientation="1,0"
       id="guide17866" /><sodipodi:guide
       position="516.77735,1082.2069"
       orientation="1,0"
       id="guide17868" /><sodipodi:guide
       position="756.5754,1060.2188"
       orientation="1,0"
       id="guide17870" /><sodipodi:guide
       position="116.97674,746.84565"
       orientation="0,-1"
       id="guide17872" /><sodipodi:guide
       position="127.7195,1082.2069"
       orientation="0,-1"
       id="guide17874" /><sodipodi:guide
       position="90.716653,411.48443"
       orientation="0,-1"
       id="guide17876" /><sodipodi:guide
       position="143.23682,76.551503"
       orientation="0,-1"
       id="guide17878" /></sodipodi:namedview><g
     id="g5760"
     inkscape:groupmode="layer"
     inkscape:label="main"
     transform="matrix(1.3333333,0,0,-1.3333333,0,816)"
     style="filter:url(#filter17017)"><g
       id="g1687"
       transform="matrix(0.09094132,0,0,-0.09094132,404.91263,390.6743)"
       style="fill:#8b8b8b;fill-opacity:1;stroke-width:8.24707" /><g
       id="g12365"
       transform="matrix(1.8363251,0,0,-1.8363251,-179.65893,1135.7501)"
       style="stroke-width:1.54365"><rect
         style="font-variation-settings:normal;opacity:1;vector-effect:none;fill:#f4f2e4;fill-opacity:1;stroke:none;stroke-width:1.54365;stroke-linecap:round;stroke-linejoin:miter;stroke-miterlimit:4;stroke-dasharray:none;stroke-dashoffset:0;stroke-opacity:1;stop-color:#000000;stop-opacity:1"
         id="rect11966"
         width="97.699028"
         height="136.76549"
         x="112.97629"
         y="301.68115" /><g
         id="g7737"
         transform="translate(56.589566,179.93542)"
         style="stroke-width:1.54365"><g
           id="g7668"
           style="stroke-width:1.54365"><path
             style="fill:none;stroke:#b4c0b6;stroke-width:2.16111;stroke-linecap:round;stroke-linejoin:miter;stroke-miterlimit:4;stroke-dasharray:none;stroke-opacity:1"
             d="m 69.614605,137.19628 c 1.086193,-0.35872 2.146441,-0.63108 3.102989,-0.60035 2.574238,0.0827 5.886108,2.19556 8.460346,2.11284 2.574242,-0.0827 5.886103,-2.19554 8.460342,-2.11284 2.574239,0.0827 5.886108,2.19556 8.460346,2.11284 2.574242,-0.0827 5.886102,-2.19554 8.460342,-2.11284 2.57424,0.0827 5.88611,2.19556 8.46035,2.11284 2.57424,-0.0827 5.88611,-2.19555 8.46035,-2.11284 2.57424,0.0827 5.88611,2.19554 8.46035,2.11284 2.47372,-0.0795 5.6286,-2.03364 8.15551,-2.11274"
             id="path7639"
             sodipodi:nodetypes="cszzzzzzsc" /><circle
             style="fill:#a1aca2;fill-opacity:1;stroke:none;stroke-width:2.16111;stroke-miterlimit:4;stroke-dasharray:none;stroke-opacity:1;stop-color:#000000"
             id="path7661"
             cx="69.438065"
             cy="137.49098"
             r="0.67681235" /><circle
             style="fill:#a1aca2;fill-opacity:1;stroke:none;stroke-width:2.16111;stroke-miterlimit:4;stroke-dasharray:none;stroke-opacity:1;stop-color:#000000"
             id="circle7663"
             cx="140.18149"
             cy="136.81282"
             r="0.67681235" /></g><use
           x="0"
           y="0"
           xlink:href="#g7668"
           id="use7672"
           transform="translate(0,4.9797532)"
           width="100%"
           height="100%"
           style="stroke-width:1.54365" /><use
           x="0"
           y="0"
           xlink:href="#g7668"
           id="use7674"
           transform="translate(0,9.9595046)"
           width="100%"
           height="100%"
           style="stroke-width:1.54365" /><use
           x="0"
           y="0"
           xlink:href="#g7668"
           id="use7676"
           transform="translate(0,14.93926)"
           width="100%"
           height="100%"
           style="stroke-width:1.54365" /><use
           x="0"
           y="0"
           xlink:href="#g7668"
           id="use7678"
           transform="translate(0,19.919005)"
           width="100%"
           height="100%"
           style="stroke-width:1.54365" /><use
           x="0"
           y="0"
           xlink:href="#g7668"
           id="use7680"
           transform="translate(0,24.898764)"
           width="100%"
           height="100%"
           style="stroke-width:1.54365" /><use
           x="0"
           y="0"
           xlink:href="#g7668"
           id="use7682"
           transform="translate(0,29.878502)"
           width="100%"
           height="100%"
           style="stroke-width:1.54365" /><use
           x="0"
           y="0"
           xlink:href="#g7668"
           id="use7684"
           transform="translate(0,34.858264)"
           width="100%"
           height="100%"
           style="stroke-width:1.54365" /><use
           x="0"
           y="0"
           xlink:href="#g7668"
           id="use7686"
           transform="translate(0,39.838016)"
           width="100%"
           height="100%"
           style="stroke-width:1.54365" /><use
           x="0"
           y="0"
           xlink:href="#g7668"
           id="use7688"
           transform="translate(0,44.817765)"
           width="100%"
           height="100%"
           style="stroke-width:1.54365" /><use
           x="0"
           y="0"
           xlink:href="#g7668"
           id="use7690"
           transform="translate(0,49.797508)"
           width="100%"
           height="100%"
           style="stroke-width:1.54365" /><use
           x="0"
           y="0"
           xlink:href="#g7668"
           id="use7692"
           transform="translate(0,54.777257)"
           width="100%"
           height="100%"
           style="stroke-width:1.54365" /><use
           x="0"
           y="0"
           xlink:href="#g7668"
           id="use7694"
           transform="translate(0,59.757017)"
           width="100%"
           height="100%"
           style="stroke-width:1.54365" /><use
           x="0"
           y="0"
           xlink:href="#g7668"
           id="use7696"
           transform="translate(0,64.736762)"
           width="100%"
           height="100%"
           style="stroke-width:1.54365" /><use
           x="0"
           y="0"
           xlink:href="#g7668"
           id="use7698"
           transform="translate(0,69.716516)"
           width="100%"
           height="100%"
           style="stroke-width:1.54365" /><use
           x="0"
           y="0"
           xlink:href="#g7668"
           id="use7700"
           transform="translate(0,74.696261)"
           width="100%"
           height="100%"
           style="stroke-width:1.54365" /><use
           x="0"
           y="0"
           xlink:href="#g7668"
           id="use7702"
           transform="translate(0,79.676025)"
           width="100%"
           height="100%"
           style="stroke-width:1.54365" /><use
           x="0"
           y="0"
           xlink:href="#g7668"
           id="use7704"
           transform="translate(0,84.655771)"
           width="100%"
           height="100%"
           style="stroke-width:1.54365" /><use
           x="0"
           y="0"
           xlink:href="#g7668"
           id="use7706"
           transform="translate(0,89.635513)"
           width="100%"
           height="100%"
           style="stroke-width:1.54365" /><use
           x="0"
           y="0"
           xlink:href="#g7668"
           id="use7708"
           transform="translate(0,94.615271)"
           width="100%"
           height="100%"
           style="stroke-width:1.54365" /><use
           x="0"
           y="0"
           xlink:href="#g7668"
           id="use7710"
           transform="translate(0,99.595023)"
           width="100%"
           height="100%"
           style="stroke-width:1.54365" /><use
           x="0"
           y="0"
           xlink:href="#g7668"
           id="use7670"
           transform="translate(0,104.57478)"
           width="100%"
           height="100%"
           style="stroke-width:1.54365" /></g><rect
         style="font-variation-settings:normal;opacity:1;vector-effect:none;fill:#f4f2e4;fill-opacity:1;stroke:none;stroke-width:1.54365;stroke-linecap:round;stroke-linejoin:miter;stroke-miterlimit:4;stroke-dasharray:none;stroke-dashoffset:0;stroke-opacity:1;stop-color:#000000;stop-opacity:1"
         id="rect7891"
         width="52.871647"
         height="82.430481"
         x="135.38997"
         y="328.70746" /><path
         id="path7741"
         style="fill:#535757;fill-opacity:1;stroke:none;stroke-width:2.16111;stroke-linecap:round;stroke-miterlimit:4;stroke-dasharray:none;stroke-opacity:1;stop-color:#000000"
         d="m 138.08088,393.61976 c -0.15293,-0.0349 -0.30972,-0.12432 -0.37595,-0.27261 -0.0478,-0.11607 0.0547,-0.21807 0.12621,-0.2973 0.19884,-0.19774 0.40394,-0.39163 0.63082,-0.55719 0.10646,-0.074 0.25114,-0.15826 0.37861,-0.0812 0.0791,0.0465 0.12586,0.13285 0.2126,0.16899 0.24641,0.13685 0.52179,0.20389 0.78711,0.29263 0.10351,0.0407 0.21716,0.0706 0.30296,0.14356 -0.0257,0.0951 -0.12841,0.15567 -0.1967,0.22482 -0.18066,0.15914 -0.39095,0.29577 -0.63183,0.33829 -0.32519,0.0598 -0.65796,0.0619 -0.98761,0.0582 -0.0822,-0.003 -0.16491,-0.005 -0.24622,-0.0182 z m 0.14036,3.48538 c -0.002,-0.34385 -0.20063,-0.63371 -0.34652,-0.93197 0.51424,-0.45532 1.02233,-0.93423 1.63456,-1.25535 0.58159,0.21222 0.8608,1.02625 1.05858,1.54779 l 0.0536,9.02097 h -2.34954 z" /><path
         id="path7743"
         style="fill:#535757;fill-opacity:1;stroke:none;stroke-width:2.16111;stroke-linecap:round;stroke-miterlimit:4;stroke-dasharray:none;stroke-opacity:1;stop-color:#000000"
         d="m 142.62096,403.59056 c -0.67219,-1.41649 -0.8457,-3.19428 -0.42265,-4.56388 0.50761,-1.4465 1.44101,-2.44597 2.34415,-3.51284 0.32289,-0.29179 0.66239,-0.95269 1.10316,-0.52386 0.68766,-0.005 0.65189,-0.80988 0.66612,-1.30044 0.0118,-0.40828 0.0261,-0.81648 0.0392,-1.22472 l 1.94776,-0.67454 v 11.65436 c 0.16099,0.32052 0.32198,0.64104 0.48297,0.96156 -0.48288,0.37516 -0.92408,0.9486 -1.60354,0.87866 -0.40658,-0.18776 -0.61469,-0.64943 -0.93724,-0.9531 -0.11162,-0.22285 -0.26729,-0.20384 -0.44544,-0.0613 -0.58886,0.24837 -0.93739,0.91119 -1.58673,1.02208 -0.75571,-0.21459 -1.25477,-1.13342 -1.5878,-1.70198 z m 3.33499,-0.35087 c 0.18458,-0.6277 0.14155,-1.30481 0.1901,-1.9548 0.0173,-1.10491 0.084,-2.21986 -0.0562,-3.31888 -0.25341,-0.60918 -0.77804,-1.05382 -1.215,-1.53188 -0.44026,-0.55701 -0.95651,0.0648 -1.02792,0.55036 -0.52073,1.43794 -0.38584,3.07891 0.32249,4.43002 0.34762,0.83004 1.07398,1.80929 1.78652,1.82518 z"
         sodipodi:nodetypes="ccccscccccccccccccccc" /><path
         id="path7745"
         style="fill:#535757;fill-opacity:1;stroke:none;stroke-width:2.16111;stroke-linecap:round;stroke-miterlimit:4;stroke-dasharray:none;stroke-opacity:1;stop-color:#000000"
         d="m 151.02798,403.57705 c -0.54562,-0.84252 -1.02636,-1.86936 -1.0435,-2.79381 -0.0336,-0.76451 -0.006,-1.56113 0.34787,-2.25776 0.61783,-1.43238 1.71903,-2.5895 2.89709,-3.58158 0.76113,0.37827 1.34054,1.40838 1.77262,2.10069 0.22858,0.34184 0.42177,0.77037 0.14644,1.14732 -0.84853,1.05767 -1.97759,2.00317 -2.76939,2.95975 -0.33167,0.42874 0.24179,0.82066 0.47105,1.13844 0.45433,0.51104 0.9775,0.95258 1.50955,1.37873 0.47985,0.29412 -0.0515,0.68849 -0.29994,0.92127 -0.35668,0.29478 -0.71633,0.78227 -1.23932,0.68676 -0.73074,-0.35058 -1.37568,-1.12749 -1.79247,-1.69981 z m 1.5452,-3.35673 c 0.41584,-0.34472 0.84848,-0.73822 1.02473,-1.26209 -0.20358,-0.82093 -0.7874,-1.90501 -1.46581,-2.25124 -0.41616,-0.0371 -0.54562,0.50058 -0.667,0.81004 -0.19441,0.60544 -0.31164,1.25445 -0.15011,1.8825 0.0864,0.392 0.21384,0.93366 0.671,1.03112 0.21599,0.0284 0.42081,-0.0848 0.58719,-0.21033 z"
         sodipodi:nodetypes="ccccccccccccccccccc" /><path
         id="path7747"
         style="fill:#535757;fill-opacity:1;stroke:none;stroke-width:2.16111;stroke-linecap:round;stroke-miterlimit:4;stroke-dasharray:none;stroke-opacity:1;stop-color:#000000"
         d="m 160.61795,403.95033 c -0.0873,-2.16611 0.006,-4.33569 -0.0893,-6.50121 -0.0101,-0.43462 -0.2259,-0.89937 -0.61993,-1.10659 -0.3535,-0.10608 -0.59596,0.23373 -0.83357,0.43676 v 8.70729 c -0.69369,-0.0101 -1.38974,0.0256 -2.08149,-0.0291 -0.4075,-0.19689 -0.15452,-0.81458 -0.23726,-1.1961 -0.0539,-2.41658 0.0256,-4.83557 -0.081,-7.25083 0.0299,-0.36815 -0.11476,-0.72153 -0.31155,-0.93653 0.20187,-0.45286 0.75967,-0.56339 1.11825,-0.86301 0.3644,-0.23013 0.91355,-0.29976 1.17479,0.12385 0.29966,0.27587 0.50026,0.88458 1.00112,0.75628 0.85177,-0.13349 1.79891,-1.22656 2.48453,-1.04384 0.37778,0.25788 0.50162,0.75104 0.60137,1.17272 0.12312,1.24299 0.0615,2.49601 0.0796,3.74343 0.0169,1.13368 -0.0398,2.27263 0.075,3.40208 -0.004,0.41905 0.5182,0.8904 0.13558,1.24696 -0.3982,0.40217 -0.82904,0.87224 -1.41443,0.96174 -0.65182,-0.19092 -1.0001,-1.08905 -1.00171,-1.6239 z"
         sodipodi:nodetypes="ccccccccccccccccccc" /><path
         id="path7749"
         style="fill:#535757;fill-opacity:1;stroke:none;stroke-width:2.16111;stroke-linecap:round;stroke-miterlimit:4;stroke-dasharray:none;stroke-opacity:1;stop-color:#000000"
         d="m 165.48433,403.53419 -0.0717,-7.373 c -0.004,-0.3936 -0.0205,-1.08711 -0.59787,-0.98285 -0.43136,0.17146 -0.81145,-0.43058 -0.24508,-0.51397 1.24517,-0.31982 2.25728,-1.10598 2.90274,-2.10217 0.23214,0.30537 0.0815,0.87769 0.13639,1.28547 -0.10943,0.4934 0.60238,0.71002 0.42009,1.19831 -0.0501,0.22967 -0.36748,0.2863 -0.42641,0.48133 v 7.79864 c 0.15068,0.35873 0.33439,0.70646 0.44633,1.07932 -0.54359,0.4133 -1.09964,0.84349 -1.74542,1.08131 -0.70677,-0.40234 -0.81254,-1.28113 -0.81907,-1.95239 z"
         sodipodi:nodetypes="sscccccccccs" /><path
         id="path7773"
         style="fill:#535757;fill-opacity:1;stroke:none;stroke-width:2.16111;stroke-linecap:round;stroke-miterlimit:4;stroke-dasharray:none;stroke-opacity:1;stop-color:#000000"
         d="m 169.79259,393.60305 c -0.15292,-0.0349 -0.30971,-0.12432 -0.37594,-0.27261 -0.0478,-0.11607 0.0547,-0.21807 0.12621,-0.2973 0.19884,-0.19774 0.40393,-0.39163 0.63082,-0.55719 0.10646,-0.074 0.25114,-0.15826 0.3786,-0.0812 0.0791,0.0465 0.12586,0.13285 0.21261,0.16899 0.2464,0.13685 0.52179,0.20389 0.78711,0.29263 0.10351,0.0407 0.21716,0.0706 0.30296,0.14356 -0.0257,0.0951 -0.12842,0.15567 -0.1967,0.22482 -0.18066,0.15914 -0.39095,0.29577 -0.63183,0.33829 -0.32519,0.0598 -0.65797,0.0619 -0.98761,0.0582 -0.0822,-0.003 -0.16491,-0.005 -0.24623,-0.0182 z m 0.14037,3.48538 c -0.002,-0.34385 -0.20063,-0.63371 -0.34653,-0.93197 0.51424,-0.45532 1.02234,-0.93423 1.63457,-1.25535 0.58159,0.21222 0.86079,1.02625 1.05857,1.54779 l 0.0536,9.02097 h -2.34953 z" /><path
         id="path7769"
         style="fill:#535757;fill-opacity:1;stroke:none;stroke-width:2.16111;stroke-linecap:round;stroke-miterlimit:4;stroke-dasharray:none;stroke-opacity:1;stop-color:#000000"
         d="m 174.80182,403.54403 -0.0717,-7.373 c -0.004,-0.3936 -0.0205,-1.08711 -0.59787,-0.98285 -0.43136,0.17146 -0.81145,-0.43058 -0.24508,-0.51397 1.24517,-0.31982 2.25728,-1.10598 2.90274,-2.10217 0.23214,0.30537 0.0815,0.87769 0.13639,1.28547 -0.10943,0.4934 0.60238,0.71002 0.42009,1.19831 -0.0501,0.22967 -0.36748,0.2863 -0.42641,0.48133 v 7.79864 c 0.15068,0.35873 0.33439,0.70646 0.44633,1.07932 -0.54359,0.4133 -1.09964,0.84349 -1.74542,1.08131 -0.70677,-0.40234 -0.81254,-1.28113 -0.81907,-1.95239 z"
         sodipodi:nodetypes="sscccccccccs" /><path
         id="path7757"
         style="fill:#535757;fill-opacity:1;stroke:none;stroke-width:2.16111;stroke-linecap:round;stroke-miterlimit:4;stroke-dasharray:none;stroke-opacity:1;stop-color:#000000"
         d="m 178.54367,408.71881 c -0.107,-0.69025 0.33558,-1.33501 0.84586,-1.75848 0.44622,-0.43601 1.06385,-0.73225 1.36316,-1.29721 0.0517,-0.57991 -0.46741,-1.0191 -0.74243,-1.48845 -1.60073,-2.95727 -1.42642,-5.53827 -1.18673,-8.09326 0.006,-0.60292 0.75934,-0.65417 1.19879,-0.80055 0.30255,-0.0212 0.8438,-0.27861 1.03638,-0.15929 -0.32479,2.68677 -0.29407,5.93153 1.11089,8.02653 0.6157,0.36138 0.98882,-0.50824 1.11393,-0.97986 0.80849,-2.46345 0.38857,-4.78492 -0.2858,-7.03349 -0.29096,-0.56192 0.6064,-0.24547 0.92205,-0.33093 h 0.75758 c 0.45301,1.7597 0.4942,3.78053 0.003,5.40111 -0.82226,2.71093 -2.74955,4.52438 -4.32178,6.50712 -0.39615,0.49959 -0.41073,1.18626 -0.19635,1.7666 -0.24237,0.5312 -1.22092,0.4902 -1.61821,0.24016 z"
         sodipodi:nodetypes="ccccccccccccsscc" /><rect
         style="fill:#535757;fill-opacity:1;stroke:none;stroke-width:2.16111;stroke-linecap:round;stroke-miterlimit:4;stroke-dasharray:none;stroke-opacity:1;stop-color:#000000"
         id="rect7759"
         width="38.949749"
         height="1.4197057"
         x="137.55635"
         y="407.59537" /><rect
         style="fill:#535757;fill-opacity:1;stroke:none;stroke-width:2.16111;stroke-linecap:round;stroke-miterlimit:4;stroke-dasharray:none;stroke-opacity:1;stop-color:#000000"
         id="rect7761"
         width="2.8838518"
         height="1.4197057"
         x="181.85858"
         y="407.59537" /><rect
         style="font-variation-settings:normal;opacity:1;vector-effect:none;fill:#525958;fill-opacity:1;stroke:none;stroke-width:1.54365;stroke-linecap:round;stroke-linejoin:miter;stroke-miterlimit:4;stroke-dasharray:none;stroke-dashoffset:0;stroke-opacity:1;stop-color:#000000;stop-opacity:1"
         id="rect7887"
         width="42.048759"
         height="53.347317"
         x="140.80142"
         y="333.87314" /><path
         id="path7862"
         style="font-variation-settings:normal;opacity:1;vector-effect:none;fill:#f4f2e4;fill-opacity:1;stroke:none;stroke-width:1.54365;stroke-linecap:round;stroke-linejoin:miter;stroke-miterlimit:4;stroke-dasharray:none;stroke-dashoffset:0;stroke-opacity:1;stop-color:#000000;stop-opacity:1"
         d="m 140.29651,337.21856 c 0.466,1.55779 0.9241,2.40229 1.72889,2.04517 0.58304,-0.25873 0.85029,-0.24207 0.84363,0.14023 -0.009,0.4982 0.14122,0.28263 0.37701,0.54767 0.23579,0.26505 -0.32574,1.05391 -0.64294,0.71887 -0.64806,-0.6845 -1.17478,-0.54648 -1.96523,-0.17511 -0.77508,0.36415 -0.34136,-3.27683 -0.34136,-3.27683 z m 16.00404,-2.87728 a 0.29739031,0.29739031 0 0 1 -0.29739,0.29739 0.29739031,0.29739031 0 0 1 -0.29739,-0.29739 0.29739031,0.29739031 0 0 1 0.29739,-0.29739 0.29739031,0.29739031 0 0 1 0.29739,0.29739 z m -18.3799,10.60983 a 0.37778884,0.37778884 0 0 1 -0.37779,0.37779 0.37778884,0.37778884 0 0 1 -0.37779,-0.37779 0.37778884,0.37778884 0 0 1 0.37779,-0.37779 0.37778884,0.37778884 0 0 1 0.37779,0.37779 z m 47.86175,38.74805 a 0.53665274,0.53665274 0 0 1 -0.53666,0.53665 0.53665274,0.53665274 0 0 1 -0.53665,-0.53665 0.53665274,0.53665274 0 0 1 0.53665,-0.53666 0.53665274,0.53665274 0 0 1 0.53666,0.53666 z m -0.40034,2.90356 a 0.37778884,0.37778884 0 0 1 -0.37779,0.37779 0.37778884,0.37778884 0 0 1 -0.37779,-0.37779 0.37778884,0.37778884 0 0 1 0.37779,-0.37779 0.37778884,0.37778884 0 0 1 0.37779,0.37779 z m -33.10477,-54.7818 c -0.131,-0.0388 -0.157,-0.0546 -0.21483,-0.12991 -0.0748,-0.0974 -0.0516,-0.34082 0.0406,-0.42491 0.0335,-0.0306 0.0806,-0.0434 0.1857,-0.0504 0.12238,-0.008 0.14725,-0.004 0.18999,0.0325 0.0844,0.0719 0.10403,0.11015 0.12744,0.24751 0.0222,0.13054 0.0216,0.13494 -0.0338,0.21706 -0.0579,0.0859 -0.12847,0.14721 -0.16484,0.14306 -0.0113,-0.001 -0.0699,-0.017 -0.13025,-0.0349 z m 13.19642,53.90787 c -0.19993,-0.0451 -0.33538,-0.48049 -0.19359,-0.62228 0.054,-0.054 0.20166,-0.0836 0.32803,-0.0658 0.16411,0.0232 0.23812,0.10429 0.25897,0.28368 0.033,0.28355 -0.14013,0.46146 -0.39341,0.40435 z m 1.50078,-0.62637 c -0.25838,-0.25838 -0.0586,-0.66057 0.3281,-0.66057 0.32315,0 0.48207,0.24472 0.34883,0.53716 -0.11885,0.26084 -0.47464,0.3257 -0.67693,0.12341 z m 6.29481,-0.53483 c -0.68214,-0.32971 -0.78456,-0.46321 -0.6513,-0.84904 0.17789,-0.51504 0.63826,-1.18242 0.89697,-1.30029 0.6298,-0.28696 1.21331,0.0663 1.20917,0.73204 -0.003,0.43374 -0.55903,1.62097 -0.77484,1.65354 -0.0802,0.0121 -0.38614,-0.0942 -0.68,-0.23625 z m 4.54163,-1.12195 c -0.25654,-0.39152 0.12047,-0.96069 0.50133,-0.75686 0.29885,0.15994 0.41323,0.4349 0.30228,0.72672 -0.12573,0.33068 -0.59515,0.34829 -0.80361,0.0301 z m -35.8921,-38.80351 c -0.14047,-0.14047 -0.13884,-0.33483 0.004,-0.46783 0.24796,-0.23101 0.70908,-0.0516 0.63584,0.24737 -0.0467,0.19052 -0.13266,0.26476 -0.34687,0.29953 -0.1443,0.0234 -0.20745,0.006 -0.29289,-0.0791 z m 0.90377,-5.75214 c -0.008,-0.0145 -0.0332,-0.10499 -0.0554,-0.20123 -0.0728,-0.31497 0.0552,-0.56788 0.31729,-0.6265 0.0699,-0.0156 0.12131,0.002 0.20346,0.0716 0.10069,0.0847 0.10789,0.10452 0.0859,0.23622 -0.0304,0.18233 -0.11978,0.30833 -0.31281,0.44114 -0.15559,0.10704 -0.21177,0.12561 -0.23842,0.0788 z m 3.02224,-0.25433 c -0.16675,-0.0393 -0.20579,-0.10511 -0.17654,-0.29783 0.0302,-0.19912 0.0619,-0.2311 0.25882,-0.26098 0.12547,-0.019 0.17986,-0.01 0.26808,0.0462 0.10351,0.0655 0.1095,0.0804 0.0927,0.22925 -0.0129,0.11492 -0.0438,0.1814 -0.11083,0.23908 -0.0982,0.0845 -0.13864,0.0899 -0.33225,0.0443 z m 5.91251,3.59057 c -0.15014,-0.12131 -0.2602,-0.29734 -0.29182,-0.46676 -0.0346,-0.18553 0.0643,-0.66103 0.16498,-0.79303 0.0923,-0.12097 0.11616,-0.13291 0.56453,-0.28218 0.15398,-0.0513 0.44618,-0.14968 0.64933,-0.2187 0.41547,-0.14115 0.50505,-0.13785 0.66753,0.0246 0.0811,0.0811 0.1005,0.13113 0.1005,0.259 0,0.13557 -0.018,0.17594 -0.12422,0.27914 -0.13306,0.12922 -0.20037,0.16178 -0.51431,0.24881 -0.28365,0.0786 -0.40613,0.20171 -0.58221,0.58505 -0.0824,0.17943 -0.16205,0.34986 -0.17695,0.37874 -0.0149,0.0289 -0.0939,0.0616 -0.17552,0.0728 -0.12954,0.0177 -0.16541,0.007 -0.28184,-0.0875 z m -5.30917,0.9162 c -0.17508,-0.088 -0.19706,-0.13212 -0.151,-0.30317 0.0437,-0.16242 0.26041,-0.32223 0.60582,-0.44683 0.25035,-0.0903 0.53563,-0.28672 0.66654,-0.45892 0.0397,-0.0523 0.1602,-0.19741 0.26769,-0.32253 0.10748,-0.12511 0.23816,-0.29397 0.2904,-0.37524 0.12852,-0.19993 0.2655,-0.26614 0.5121,-0.24754 0.26645,0.0201 0.41954,0.10363 0.55434,0.30244 0.10467,0.15438 0.11374,0.18988 0.11374,0.44551 0,0.33976 -0.0342,0.46705 -0.17261,0.64176 -0.12864,0.16242 -0.54317,0.37364 -0.8745,0.44559 -0.12358,0.0268 -0.31256,0.0876 -0.41996,0.13504 -0.1074,0.0474 -0.32943,0.10912 -0.49341,0.13707 -0.16397,0.0279 -0.34216,0.0675 -0.39598,0.088 -0.14884,0.0566 -0.33968,0.041 -0.50317,-0.0412 z" /><rect
         style="font-variation-settings:normal;opacity:1;vector-effect:none;fill:none;fill-opacity:1;stroke:#525958;stroke-width:1.54365;stroke-linecap:round;stroke-linejoin:miter;stroke-miterlimit:4;stroke-dasharray:none;stroke-dashoffset:0;stroke-opacity:1;stop-color:#000000;stop-opacity:1"
         id="rect7889"
         width="46.824131"
         height="57.605572"
         x="138.03259"
         y="331.74402" /><g
         id="g11983"
         style="stroke-width:1.54365"><path
           style="fill:#f1f0e1;fill-opacity:1;stroke:none;stroke-width:0.408424px;stroke-linecap:butt;stroke-linejoin:miter;stroke-opacity:1"
           d="m 149.79599,373.40312 c -1.58131,-1.47294 -3.03008,-4.875 -3.03008,-4.875 l 2.08777,-1.9477 -2.64615,-0.53559 2.93105,-2.79919 c -1.84686,-2.67087 -3.07974,-5.89535 -2.58021,-9.87119 0.77046,-6.13223 3.97294,-10.44872 9.48965,-12.45279 7.24553,-2.6321 12.48677,-0.11474 16.88157,4.43899 l -19.66604,27.86319 z"
           id="path7778"
           sodipodi:nodetypes="cccccssccc" /><path
           style="fill:#b5c1b7;fill-opacity:1;stroke:none;stroke-width:0.408424px;stroke-linecap:butt;stroke-linejoin:miter;stroke-opacity:1"
           d="m 178.73175,374.55801 -18.07352,7.15923 -3.16805,-8.15961 c -2.55651,0.37593 -5.42098,2.21435 -7.69419,-0.15451 1.29782,-0.33584 2.23125,-0.99605 2.21631,-2.55139 l -0.19291,-20.08937 c 2.2361,-4.83001 5.40933,-9.21064 12.11069,-9.34754 7.24846,-0.14808 11.6496,5.31605 12.25944,12.1248 0.35626,3.97752 -0.92449,6.90984 -2.38968,9.81352 z"
           id="path7776"
           sodipodi:nodetypes="ccccscsscc" /><path
           style="fill:#b5c1b7;fill-opacity:1;stroke:none;stroke-width:0.408424px;stroke-linecap:butt;stroke-linejoin:miter;stroke-opacity:1"
           d="m 148.07418,363.02128 -2.22269,-4.62758 -1.45368,3.04256 c -0.44251,0.92617 -0.0239,1.53849 0.86056,1.55737 z"
           id="path7780"
           sodipodi:nodetypes="ccssc" /><circle
           style="fill:#535655;fill-opacity:1;stroke:none;stroke-width:2.16111;stroke-linecap:round;stroke-miterlimit:4;stroke-dasharray:none;stroke-opacity:1;stop-color:#000000"
           id="path7782"
           cx="152.12869"
           cy="357.4288"
           r="1.3615847" /><path
           style="fill:none;stroke:#535655;stroke-width:1.54365;stroke-linecap:butt;stroke-linejoin:miter;stroke-miterlimit:4;stroke-dasharray:none;stroke-opacity:1"
           d="m 147.94989,353.591 h 8.29482"
           id="path7784" /><path
           style="fill:none;stroke:#535655;stroke-width:1.54365;stroke-linecap:butt;stroke-linejoin:miter;stroke-miterlimit:4;stroke-dasharray:none;stroke-opacity:1"
           d="m 162.64934,358.69456 -6.08958,6.21847"
           id="path7786" /><path
           style="fill:none;stroke:#535655;stroke-width:1.54365;stroke-linecap:butt;stroke-linejoin:miter;stroke-miterlimit:4;stroke-dasharray:none;stroke-opacity:1"
           d="m 160.72039,370.23627 c 9.13888,-0.24167 13.30091,-6.09641 13.70611,-6.79916 l -2.64904,-6.13358"
           id="path7790"
           sodipodi:nodetypes="ccc" /><path
           style="fill:none;stroke:#535655;stroke-width:1.54365;stroke-linecap:butt;stroke-linejoin:miter;stroke-miterlimit:4;stroke-dasharray:none;stroke-opacity:1"
           d="m 151.33582,366.41537 c -5.04863,-4.57842 -5.73754,-9.49238 -5.69746,-14.46245"
           id="path7788"
           sodipodi:nodetypes="cc" /></g></g><use
       x="0"
       y="0"
       xlink:href="#g12365"
       id="use30133"
       transform="translate(180.37356,-0.37502958)"
       width="100%"
       height="100%" /><use
       x="0"
       y="0"
       xlink:href="#g12365"
       id="use30135"
       transform="translate(360.2221,-0.37502958)"
       width="100%"
       height="100%" /><use
       x="0"
       y="0"
       xlink:href="#g12365"
       id="use30137"
       transform="translate(0.48319366,-251.89597)"
       width="100%"
       height="100%" /><use
       x="0"
       y="0"
       xlink:href="#g12365"
       id="use30139"
       transform="translate(180.37358,-251.89597)"
       width="100%"
       height="100%" /><use
       x="0"
       y="0"
       xlink:href="#g12365"
       id="use30141"
       transform="translate(360.22211,-251.52096)"
       width="100%"
       height="100%" /><use
       x="0"
       y="0"
       xlink:href="#g12365"
       id="use30143"
       transform="translate(0.48319366,-503.04187)"
       width="100%"
       height="100%" /><use
       x="0"
       y="0"
       xlink:href="#g12365"
       id="use30145"
       transform="translate(180.37358,-503.04187)"
       width="100%"
       height="100%" /><use
       x="0"
       y="0"
       xlink:href="#g12365"
       id="use30131"
       transform="translate(360.22211,-503.04187)"
       width="100%"
       height="100%" /></g><g
     inkscape:groupmode="layer"
     id="layer1"
     inkscape:label="grid"
     sodipodi:insensitive="true"><g
       id="g6963"
       transform="matrix(1.3333333,0,0,-1.3333333,6.2918984,1220.2589)"><path
         style="fill:none;stroke:#000000;stroke-width:0.75px;stroke-linecap:butt;stroke-linejoin:miter;stroke-opacity:1"
         d="m 202.97372,637.74244 v -8.60753"
         id="path6959" /><path
         style="fill:none;stroke:#000000;stroke-width:0.75px;stroke-linecap:butt;stroke-linejoin:miter;stroke-opacity:1"
         d="m 198.66995,633.43867 h 8.60753"
         id="path6961" /></g><g
       id="g6969"
       transform="matrix(1.3333333,0,0,-1.3333333,246.14571,1220.2589)"><path
         style="fill:none;stroke:#000000;stroke-width:0.75px;stroke-linecap:butt;stroke-linejoin:miter;stroke-opacity:1"
         d="m 202.97372,637.74244 v -8.60753"
         id="path6965" /><path
         style="fill:none;stroke:#000000;stroke-width:0.75px;stroke-linecap:butt;stroke-linejoin:miter;stroke-opacity:1"
         d="m 198.66995,633.43867 h 8.60753"
         id="path6967" /></g><g
       id="g6975"
       transform="matrix(1.3333333,0,0,-1.3333333,485.99952,1220.2589)"><path
         style="fill:none;stroke:#000000;stroke-width:0.75px;stroke-linecap:butt;stroke-linejoin:miter;stroke-opacity:1"
         d="m 202.97372,637.74244 v -8.60753"
         id="path6971" /><path
         style="fill:none;stroke:#000000;stroke-width:0.75px;stroke-linecap:butt;stroke-linejoin:miter;stroke-opacity:1"
         d="m 198.66995,633.43867 h 8.60753"
         id="path6973" /></g><g
       id="g6981"
       transform="matrix(1.3333333,0,0,-1.3333333,-233.56193,1220.2589)"><path
         style="fill:none;stroke:#000000;stroke-width:0.75px;stroke-linecap:butt;stroke-linejoin:miter;stroke-opacity:1"
         d="m 202.97372,637.74244 v -8.60753"
         id="path6977" /><path
         style="fill:none;stroke:#000000;stroke-width:0.75px;stroke-linecap:butt;stroke-linejoin:miter;stroke-opacity:1"
         d="m 198.66995,633.43867 h 8.60753"
         id="path6979" /></g><g
       id="g6939"
       transform="matrix(1.3333333,0,0,-1.3333333,6.2919086,884.89772)"><path
         style="fill:none;stroke:#000000;stroke-width:0.75px;stroke-linecap:butt;stroke-linejoin:miter;stroke-opacity:1"
         d="m 202.97372,637.74244 v -8.60753"
         id="path6933" /><path
         style="fill:none;stroke:#000000;stroke-width:0.75px;stroke-linecap:butt;stroke-linejoin:miter;stroke-opacity:1"
         d="m 198.66995,633.43867 h 8.60753"
         id="path6935" /></g><g
       id="g6945"
       transform="matrix(1.3333333,0,0,-1.3333333,246.14573,884.89772)"><path
         style="fill:none;stroke:#000000;stroke-width:0.75px;stroke-linecap:butt;stroke-linejoin:miter;stroke-opacity:1"
         d="m 202.97372,637.74244 v -8.60753"
         id="path6941" /><path
         style="fill:none;stroke:#000000;stroke-width:0.75px;stroke-linecap:butt;stroke-linejoin:miter;stroke-opacity:1"
         d="m 198.66995,633.43867 h 8.60753"
         id="path6943" /></g><g
       id="g6951"
       transform="matrix(1.3333333,0,0,-1.3333333,485.99953,884.89772)"><path
         style="fill:none;stroke:#000000;stroke-width:0.75px;stroke-linecap:butt;stroke-linejoin:miter;stroke-opacity:1"
         d="m 202.97372,637.74244 v -8.60753"
         id="path6947" /><path
         style="fill:none;stroke:#000000;stroke-width:0.75px;stroke-linecap:butt;stroke-linejoin:miter;stroke-opacity:1"
         d="m 198.66995,633.43867 h 8.60753"
         id="path6949" /></g><g
       id="g6957"
       transform="matrix(1.3333333,0,0,-1.3333333,-233.56191,884.89772)"><path
         style="fill:none;stroke:#000000;stroke-width:0.75px;stroke-linecap:butt;stroke-linejoin:miter;stroke-opacity:1"
         d="m 202.97372,637.74244 v -8.60753"
         id="path6953" /><path
         style="fill:none;stroke:#000000;stroke-width:0.75px;stroke-linecap:butt;stroke-linejoin:miter;stroke-opacity:1"
         d="m 198.66995,633.43867 h 8.60753"
         id="path6955" /></g><g
       id="g6987"
       transform="matrix(1.3333333,0,0,-1.3333333,6.291902,1555.6202)"><path
         style="fill:none;stroke:#000000;stroke-width:0.75px;stroke-linecap:butt;stroke-linejoin:miter;stroke-opacity:1"
         d="m 202.97372,637.74244 v -8.60753"
         id="path6983" /><path
         style="fill:none;stroke:#000000;stroke-width:0.75px;stroke-linecap:butt;stroke-linejoin:miter;stroke-opacity:1"
         d="m 198.66995,633.43867 h 8.60753"
         id="path6985" /></g><g
       id="g6993"
       transform="matrix(1.3333333,0,0,-1.3333333,246.14571,1555.6202)"><path
         style="fill:none;stroke:#000000;stroke-width:0.75px;stroke-linecap:butt;stroke-linejoin:miter;stroke-opacity:1"
         d="m 202.97372,637.74244 v -8.60753"
         id="path6989" /><path
         style="fill:none;stroke:#000000;stroke-width:0.75px;stroke-linecap:butt;stroke-linejoin:miter;stroke-opacity:1"
         d="m 198.66995,633.43867 h 8.60753"
         id="path6991" /></g><g
       id="g6999"
       transform="matrix(1.3333333,0,0,-1.3333333,485.99952,1555.6202)"><path
         style="fill:none;stroke:#000000;stroke-width:0.75px;stroke-linecap:butt;stroke-linejoin:miter;stroke-opacity:1"
         d="m 202.97372,637.74244 v -8.60753"
         id="path6995" /><path
         style="fill:none;stroke:#000000;stroke-width:0.75px;stroke-linecap:butt;stroke-linejoin:miter;stroke-opacity:1"
         d="m 198.66995,633.43867 h 8.60753"
         id="path6997" /></g><g
       id="g7005"
       transform="matrix(1.3333333,0,0,-1.3333333,-233.56193,1555.6202)"><path
         style="fill:none;stroke:#000000;stroke-width:0.75px;stroke-linecap:butt;stroke-linejoin:miter;stroke-opacity:1"
         d="m 202.97372,637.74244 v -8.60753"
         id="path7001" /><path
         style="fill:none;stroke:#000000;stroke-width:0.75px;stroke-linecap:butt;stroke-linejoin:miter;stroke-opacity:1"
         d="m 198.66995,633.43867 h 8.60753"
         id="path7003" /></g><g
       id="g7011"
       transform="matrix(1.3333333,0,0,-1.3333333,6.2919082,1890.9814)"><path
         style="fill:none;stroke:#000000;stroke-width:0.75px;stroke-linecap:butt;stroke-linejoin:miter;stroke-opacity:1"
         d="m 202.97372,637.74244 v -8.60753"
         id="path7007" /><path
         style="fill:none;stroke:#000000;stroke-width:0.75px;stroke-linecap:butt;stroke-linejoin:miter;stroke-opacity:1"
         d="m 198.66995,633.43867 h 8.60753"
         id="path7009" /></g><g
       id="g7017"
       transform="matrix(1.3333333,0,0,-1.3333333,246.14571,1890.9814)"><path
         style="fill:none;stroke:#000000;stroke-width:0.75px;stroke-linecap:butt;stroke-linejoin:miter;stroke-opacity:1"
         d="m 202.97372,637.74244 v -8.60753"
         id="path7013" /><path
         style="fill:none;stroke:#000000;stroke-width:0.75px;stroke-linecap:butt;stroke-linejoin:miter;stroke-opacity:1"
         d="m 198.66995,633.43867 h 8.60753"
         id="path7015" /></g><g
       id="g7023"
       transform="matrix(1.3333333,0,0,-1.3333333,485.99952,1890.9814)"><path
         style="fill:none;stroke:#000000;stroke-width:0.75px;stroke-linecap:butt;stroke-linejoin:miter;stroke-opacity:1"
         d="m 202.97372,637.74244 v -8.60753"
         id="path7019" /><path
         style="fill:none;stroke:#000000;stroke-width:0.75px;stroke-linecap:butt;stroke-linejoin:miter;stroke-opacity:1"
         d="m 198.66995,633.43867 h 8.60753"
         id="path7021" /></g><g
       id="g7029"
       transform="matrix(1.3333333,0,0,-1.3333333,-233.56193,1890.9814)"><path
         style="fill:none;stroke:#000000;stroke-width:0.75px;stroke-linecap:butt;stroke-linejoin:miter;stroke-opacity:1"
         d="m 202.97372,637.74244 v -8.60753"
         id="path7025" /><path
         style="fill:none;stroke:#000000;stroke-width:0.75px;stroke-linecap:butt;stroke-linejoin:miter;stroke-opacity:1"
         d="m 198.66995,633.43867 h 8.60753"
         id="path7027" /></g></g></svg>
